{
    "_id": "nAe65lvsOJAIHGGT",
    "data": {
        "boosts": {
            "0": {
                "value": [
                    "cha",
                    "int"
                ]
            },
            "1": {
                "value": [
                    "cha",
                    "con",
                    "dex",
                    "int",
                    "str",
                    "wis"
                ]
            }
        },
        "description": {
            "value": "<p>There are people in this world who possess the ability to pierce the veil between the world of the living and the world of the dead, allowing them to communicate with spirits. You... are not one of them. But you know enough about the occult, as well as cold reading tricks and various practices from local religions, to scam your way into people's coinpurses. Unlike a through-and-through charlatan, there's some real occult methodology behind your flimflam, but that's likely cold comfort to the people you swindle. Whether you decided to take a more righteous path, were caught and pledged to make it right, or still slip in a few \"séances\" between adventures, you've taken to an adventuring lifestyle as you move from place to place.</p>\n<p>Choose two ability boosts. One must be to <strong>Intelligence</strong> or <strong>Charisma</strong>, and one is a free ability boost.</p>\n<p>You're trained in Occultism and Fortune-Telling Lore.</p>\n<p>You gain the @Compendium[pf2e.feats-srd.Deceptive Worship]{Deceptive Worship} skill feat.</p>"
        },
        "items": {
            "j9acs": {
                "id": "r7cgrrHh75R8UEqN",
                "img": "systems/pf2e/icons/features/feats/feats.webp",
                "level": 1,
                "name": "Deceptive Worship",
                "pack": "pf2e.feats-srd"
            }
        },
        "rules": [],
        "source": {
            "value": "Pathfinder Secrets of Magic"
        },
        "trainedLore": "Fortune-Telling Lore",
        "trainedSkills": {
            "custom": "",
            "value": [
                "occ"
            ]
        },
        "traits": {
            "custom": "",
            "rarity": {
                "value": "common"
            },
            "value": []
        }
    },
    "effects": [],
    "flags": {},
    "img": "systems/pf2e/icons/default-icons/background.svg",
    "name": "False Medium",
    "type": "background"
}
