{
    "_id": "zOq3K7jpF2E1NmZi",
    "data": {
        "boosts": {
            "0": {
                "value": [
                    "int",
                    "wis"
                ]
            },
            "1": {
                "value": [
                    "cha",
                    "con",
                    "dex",
                    "int",
                    "str",
                    "wis"
                ]
            }
        },
        "description": {
            "value": "<p>You are currently enrolled at a school of magic, where you're learning the fundamentals of your magical tradition. Whether your adventuring occurs during breaks between semesters, as part of a work study program, or even within the halls of the academy itself, you'll have to learn to juggle your dual life.</p>\n<p>Choose two ability boosts. One must be to <strong>Intelligence</strong> or <strong>Wisdom</strong>, and one is a free ability boost.</p>\n<p>You're trained in the Arcana skill and Academia Lore. You gain the @Compendium[pf2e.feats-srd.Recognize Spell]{Recognize Spell} skill feat.</p>"
        },
        "items": {
            "xa78y": {
                "id": "MjQyTcV8Jiv1Jtln",
                "img": "systems/pf2e/icons/features/feats/feats.webp",
                "level": 1,
                "name": "Recognize Spell",
                "pack": "pf2e.feats-srd"
            }
        },
        "rules": [],
        "source": {
            "value": "Pathfinder Secrets of Magic"
        },
        "trainedLore": "Academia Lore",
        "trainedSkills": {
            "custom": "",
            "value": [
                "arc"
            ]
        },
        "traits": {
            "custom": "",
            "rarity": {
                "value": "common"
            },
            "value": []
        }
    },
    "effects": [],
    "flags": {},
    "img": "systems/pf2e/icons/default-icons/background.svg",
    "name": "Student of Magic (Arcana)",
    "type": "background"
}
