{
    "_id": "Sj91CUyEUeWoPh2R",
    "data": {
        "boosts": {
            "0": {
                "value": [
                    "cha",
                    "int"
                ]
            },
            "1": {
                "value": [
                    "cha",
                    "con",
                    "dex",
                    "int",
                    "str",
                    "wis"
                ]
            }
        },
        "description": {
            "value": "<p>You delight in making little trinkets for children of all ages, and seeing their faces light up thanks to one of your creations brings joy to your heart. Perhaps you sell your wares from a particular shop or from the back of a wagon as you travel from town to town.</p>\n<p>Choose two ability boosts. One must be to <strong>Intelligence</strong> or <strong>Charisma</strong>, and one is a free ability boost.</p>\n<p>You're trained in the Crafting skill and the Mercantile Lore skill. You gain the Specialty Crafting skill feat, choosing @Compendium[pf2e.feats-srd.Specialty Crafting (Artistry)]{Specialty Crafting (Artistry)}, @Compendium[pf2e.feats-srd.Specialty Crafting (Blacksmithing)]{Specialty Crafting (Blacksmithing)}, @Compendium[pf2e.feats-srd.Specialty Crafting (Glassmaking)]{Specialty Crafting (Glassmaking)}, @Compendium[pf2e.feats-srd.Specialty Crafting (Leatherworking)]{Specialty Crafting (Leatherworking)}, @Compendium[pf2e.feats-srd.Specialty Crafting (Tailoring)]{Specialty Crafting (Tailoring)}, or @Compendium[pf2e.feats-srd.Specialty Crafting (Woodworking)]{Specialty Crafting (Woodworking)} as your specialty.</p>"
        },
        "items": {},
        "rules": [],
        "source": {
            "value": "Pathfinder Guns & Gears"
        },
        "trainedLore": "Mercantile",
        "trainedSkills": {
            "custom": "",
            "value": [
                "cra"
            ]
        },
        "traits": {
            "custom": "",
            "rarity": {
                "value": "common"
            },
            "value": []
        }
    },
    "effects": [],
    "flags": {},
    "img": "systems/pf2e/icons/default-icons/background.svg",
    "name": "Toymaker",
    "type": "background"
}
