{
    "_id": "Ac0BSiDJhtMmPnge",
    "data": {
        "description": {
            "value": "<div><strong>Armor</strong> studded leather armor</div>\n<div><strong>Weapons</strong> mace, sling with 20 sling bullets</div>\n<div><strong>Gear</strong> adventurer's pack</div>\n<div><strong>Options</strong> @Compendium[pf2e.equipment-srd.Steel Shield]{Steel Shield} (2 gp), @Compendium[pf2e.equipment-srd.Healer's Tools]{Healer's Tools} (5 gp)</div>"
        },
        "equippedBulk": {
            "value": ""
        },
        "items": {
            "81gde": {
                "id": "2req0jGaxz8hScdB",
                "img": "systems/pf2e/icons/equipment/adventuring-gear/adventurers-pack.webp",
                "isContainer": true,
                "items": {},
                "name": "Adventurer's Pack",
                "pack": "pf2e.equipment-srd",
                "quantity": 1
            },
            "cps": {
                "id": "lzJ8AVhRcbFul5fh",
                "img": "systems/pf2e/icons/equipment/treasure/currency/copper-pieces.webp",
                "isContainer": false,
                "items": {},
                "name": "Copper Pieces",
                "pack": "pf2e.equipment-srd",
                "quantity": 8
            },
            "dz42h": {
                "id": "UCH4myuFnokGv0vF",
                "img": "systems/pf2e/icons/equipment/weapons/sling.webp",
                "isContainer": false,
                "items": {},
                "name": "Sling",
                "pack": "pf2e.equipment-srd",
                "quantity": 1
            },
            "gps": {
                "id": "B6B7tBWJSqOBz5zz",
                "img": "systems/pf2e/icons/equipment/treasure/currency/gold-pieces.webp",
                "isContainer": false,
                "items": {},
                "name": "Gold Pieces",
                "pack": "pf2e.equipment-srd",
                "quantity": 9
            },
            "j2qa3": {
                "id": "ewQZ0VeL38v3qFnN",
                "img": "systems/pf2e/icons/equipment/armor/studded-leather-armor.webp",
                "isContainer": false,
                "items": {},
                "name": "Studded Leather Armor",
                "pack": "pf2e.equipment-srd",
                "quantity": 1
            },
            "sps": {
                "id": "5Ew82vBF9YfaiY9f",
                "img": "systems/pf2e/icons/equipment/treasure/currency/silver-pieces.webp",
                "isContainer": false,
                "items": {},
                "name": "Silver Pieces",
                "pack": "pf2e.equipment-srd",
                "quantity": 4
            },
            "vata5": {
                "id": "9iDqOLNFKxiTcFKE",
                "img": "systems/pf2e/icons/equipment/weapons/mace.webp",
                "isContainer": false,
                "items": {},
                "name": "Mace",
                "pack": "pf2e.equipment-srd",
                "quantity": 1
            },
            "witkx": {
                "id": "MKSeXwUm56c15MZa",
                "img": "systems/pf2e/icons/equipment/weapons/sling-bullets.webp",
                "isContainer": false,
                "items": {},
                "name": "Sling Bullets",
                "pack": "pf2e.equipment-srd",
                "quantity": 20
            }
        },
        "price": {
            "value": "5 gp, 5 sp, 2 cp"
        },
        "rules": [],
        "source": {
            "value": "Pathfinder Advanced Player's Guide"
        },
        "traits": {
            "custom": "",
            "rarity": {
                "value": "common"
            },
            "value": [
                "oracle"
            ]
        },
        "weight": {
            "value": "-"
        }
    },
    "effects": [],
    "flags": {},
    "img": "systems/pf2e/icons/equipment/adventuring-gear/classkit-oracle.webp",
    "name": "Class Kit (Oracle)",
    "type": "kit"
}
