{
    "_id": "BOjMAfhfDYc3MTLQ",
    "data": {
        "baseItem": null,
        "brokenThreshold": {
            "value": 0
        },
        "bulkCapacity": {
            "value": ""
        },
        "collapsed": {
            "value": false
        },
        "containerId": {
            "value": null
        },
        "description": {
            "value": "<p>When you invest this collar for your eidolon, it changes its appearance to match the eidolon's form, possibly into a different sort of neckpiece such as a choker, and it glows brightly with the symbol you and your eidolon share. While your eidolon wears a collar of the eternal bond, the collar bolsters their connection to you, allowing them to move up to 150 feet from you before unmanifesting instead of 100 feet. The eidolon can also Activate the collar to move even further.</p>\n<hr />\n<p><strong>Activate</strong> <span class=\"pf2-icon\">1</span> envision;</p>\n<p><strong>Frequency</strong> once per day;</p>\n<p><strong>Effect</strong> Your eidolon focuses their will on the collar, allowing the collar to maintain the connection between you at any distance. For the next 5 minutes, you and your eidolon can move any distance from each other without your eidolon unmanifesting. When the duration ends, if your eidolon is more than 150 feet from you, they immediately unmanifest.</p>"
        },
        "equipped": {
            "value": false
        },
        "equippedBulk": {
            "value": ""
        },
        "hardness": {
            "value": 0
        },
        "hp": {
            "value": 0
        },
        "identification": {
            "misidentified": {},
            "status": "identified",
            "unidentified": {
                "data": {
                    "description": {
                        "value": ""
                    }
                },
                "img": "",
                "name": ""
            }
        },
        "invested": {
            "value": null
        },
        "level": {
            "value": 7
        },
        "maxHp": {
            "value": 0
        },
        "negateBulk": {
            "value": "0"
        },
        "preciousMaterial": {
            "value": null
        },
        "preciousMaterialGrade": {
            "value": null
        },
        "price": {
            "value": "330 gp"
        },
        "quantity": {
            "value": 1
        },
        "rules": [],
        "size": {
            "value": "med"
        },
        "source": {
            "value": "Pathfinder Secrets of Magic"
        },
        "stackGroup": {
            "value": ""
        },
        "traits": {
            "custom": "",
            "rarity": {
                "value": "common"
            },
            "value": [
                "conjuration",
                "eidolon",
                "invested",
                "magical"
            ]
        },
        "usage": {
            "value": "worncollar"
        },
        "weight": {
            "value": "L"
        }
    },
    "effects": [],
    "flags": {},
    "img": "systems/pf2e/icons/default-icons/equipment.svg",
    "name": "Collar of the Eternal Bond",
    "type": "equipment"
}
