{
    "_id": "NEbr7nKuiluJgBHT",
    "data": {
        "baseItem": null,
        "brokenThreshold": {
            "value": 0
        },
        "bulkCapacity": {
            "value": ""
        },
        "collapsed": {
            "value": false
        },
        "containerId": {
            "value": ""
        },
        "description": {
            "value": "<p>This item is crafted by a spellcaster who wishes to become a lich. When a lich is destroyed, its soul flees to the <em>soul cage</em>. The phylactery then rebuilds the lich's undead body over the course of [[/br 1d10 #days]]{1d10 days}. Afterward, the lich manifests next to the <em>soul cage</em>, fully healed and in a new body (therefore, it lacks any equipment it had on its old body). A lich's <em>soul cage</em> must be destroyed to prevent a lich from returning.</p>\n<p>The standard <em>soul cage</em> is a sealed metal box containing strips of parchment inscribed with magical phrases. This box has Hardness 9 and 36 HP, but some liches devise more durable or difficult-to-obtain <em>soul cages</em>. A <em>soul cage</em> might also come in the form of a ring, an amulet, or a similar item; the specifics are up to the creator.</p>"
        },
        "equipped": {
            "value": false
        },
        "equippedBulk": {
            "value": ""
        },
        "hardness": {
            "value": 0
        },
        "hp": {
            "value": 0
        },
        "identification": {
            "misidentified": {},
            "status": "identified",
            "unidentified": {
                "data": {
                    "description": {
                        "value": ""
                    }
                },
                "img": "",
                "name": ""
            }
        },
        "invested": {
            "value": false
        },
        "level": {
            "value": 12
        },
        "maxHp": {
            "value": 0
        },
        "negateBulk": {
            "value": ""
        },
        "preciousMaterial": {
            "value": ""
        },
        "preciousMaterialGrade": {
            "value": ""
        },
        "price": {
            "value": "1600 gp"
        },
        "quantity": {
            "value": 1
        },
        "rules": [],
        "size": {
            "value": "med"
        },
        "source": {
            "value": "Pathfinder Bestiary"
        },
        "stackGroup": {
            "value": ""
        },
        "traits": {
            "custom": "",
            "rarity": {
                "value": "rare"
            },
            "value": [
                "arcane",
                "necromancy",
                "negative"
            ]
        },
        "usage": {
            "value": "held-in-one-hand"
        },
        "weight": {
            "value": "-"
        }
    },
    "effects": [],
    "flags": {},
    "img": "systems/pf2e/icons/equipment/held-items/lich-phylactery.webp",
    "name": "Lich Soul Cage",
    "type": "equipment"
}
