{
    "_id": "4vwMHy39IQyb7I7p",
    "data": {
        "abilities": {
            "cha": {
                "mod": -1
            },
            "con": {
                "mod": 1
            },
            "dex": {
                "mod": 3
            },
            "int": {
                "mod": 1
            },
            "str": {
                "mod": 4
            },
            "wis": {
                "mod": 3
            }
        },
        "attributes": {
            "ac": {
                "details": "",
                "value": 17
            },
            "allSaves": {
                "value": null
            },
            "hp": {
                "details": "",
                "max": 21,
                "temp": 0,
                "value": 21
            },
            "initiative": {
                "ability": "perception"
            },
            "perception": {
                "value": 7
            },
            "shield": {
                "ac": 2,
                "brokenThreshold": 0,
                "hardness": 0,
                "max": 0,
                "value": 0
            },
            "speed": {
                "otherSpeeds": [
                    {
                        "exceptions": "",
                        "label": "Climb",
                        "type": "climb",
                        "value": "5"
                    },
                    {
                        "exceptions": "",
                        "label": "Swim",
                        "type": "swim",
                        "value": "40"
                    }
                ],
                "value": "5"
            }
        },
        "details": {
            "alignment": {
                "value": "LE"
            },
            "blurb": "",
            "creatureType": "",
            "level": {
                "value": 2
            },
            "privateNotes": "",
            "publicNotes": "<p>Incutilises are intelligent, nautilus-like sea creatures that attack their victims' brains to take over their bodies, creating puppets to use for labor, combat, or their own malevolent amusement.</p>\n<p>An adult incutilis is slightly smaller than an adult human head. Its shell bears a pattern of crimson streaks that resemble the ridges and furrows of a brain. Incutilises hatch within the depths of the sea, where they start off consuming bottom-dwelling crustaceans and sometimes even whales or sharks, but as they grow into adults, incutilises instinctively crave the complex tissues of other creatures' brains-the more complex, the better.</p>\n<p>An incutilis makes excursions onto land specifically to use their iconic puppetmaster ability. They use their tentacles to crawl up onto shore or climb aboard a ship. An incutilis then drives their tendrils directly into the brain of a helpless living (or very recently dead) land creature, taking control of it through this neurological connection. They prefer to target humanoids and animals. This host-now called a puppet-rarely survives the experience.</p>\n<p>After the incutilis has taken full control, they can usually ride their puppet for as long as they wish. Often, they use the puppet to seek out other potential prey, battling other creatures until the wear and tear from repeated conflict renders the body useless.</p>",
            "source": {
                "value": "Pathfinder Bestiary 3"
            }
        },
        "resources": {},
        "saves": {
            "fortitude": {
                "saveDetail": "",
                "value": 7
            },
            "reflex": {
                "saveDetail": "",
                "value": 7
            },
            "will": {
                "saveDetail": "",
                "value": 9
            }
        },
        "traits": {
            "attitude": {
                "value": "hostile"
            },
            "ci": [],
            "di": {
                "custom": "",
                "value": []
            },
            "dr": [],
            "dv": [],
            "languages": {
                "custom": "Telepathy 30 feet",
                "selected": [],
                "value": [
                    "aklo",
                    "aquan"
                ]
            },
            "rarity": {
                "value": "uncommon"
            },
            "senses": {
                "value": "darkvision"
            },
            "size": {
                "value": "tiny"
            },
            "traits": {
                "custom": "",
                "value": [
                    "aberration",
                    "amphibious"
                ]
            }
        }
    },
    "effects": [],
    "flags": {},
    "img": "systems/pf2e/icons/default-icons/npc.svg",
    "items": [
        {
            "_id": "rbM0VDuWa5kOfsbQ",
            "data": {
                "attack": {
                    "value": ""
                },
                "attackEffects": {
                    "custom": "",
                    "value": [
                        "grab"
                    ]
                },
                "bonus": {
                    "value": 8
                },
                "damageRolls": {
                    "0": {
                        "damage": "1d4+4",
                        "damageType": "bludgeoning"
                    }
                },
                "description": {
                    "value": ""
                },
                "rules": [],
                "slug": null,
                "source": {
                    "value": ""
                },
                "traits": {
                    "custom": "",
                    "rarity": {
                        "value": "common"
                    },
                    "value": []
                },
                "weaponType": {
                    "value": "melee"
                }
            },
            "effects": [],
            "flags": {},
            "img": "systems/pf2e/icons/default-icons/melee.svg",
            "name": "Tentacle",
            "sort": 100000,
            "type": "melee"
        },
        {
            "_id": "tqxAfXEcZbDZLdxn",
            "data": {
                "actionCategory": {
                    "value": "interaction"
                },
                "actionType": {
                    "value": "passive"
                },
                "actions": {
                    "value": null
                },
                "description": {
                    "value": "<p>@Localize[PF2E.NPC.Abilities.Glossary.Darkvision]</p>"
                },
                "requirements": {
                    "value": ""
                },
                "rules": [],
                "slug": "darkvision",
                "source": {
                    "value": ""
                },
                "traits": {
                    "custom": "",
                    "rarity": {
                        "value": "common"
                    },
                    "value": []
                },
                "trigger": {
                    "value": ""
                },
                "weapon": {
                    "value": ""
                }
            },
            "effects": [],
            "flags": {
                "core": {
                    "sourceId": "Compendium.pf2e.bestiary-ability-glossary-srd.qCCLZhnp2HhP3Ex6"
                }
            },
            "img": "systems/pf2e/icons/default-icons/action.svg",
            "name": "Darkvision",
            "sort": 200000,
            "type": "action"
        },
        {
            "_id": "RdGjfkq57iIV43T3",
            "data": {
                "actionCategory": {
                    "value": "interaction"
                },
                "actionType": {
                    "value": "passive"
                },
                "actions": {
                    "value": null
                },
                "description": {
                    "value": "<p>@Localize[PF2E.NPC.Abilities.Glossary.Telepathy]</p>"
                },
                "requirements": {
                    "value": ""
                },
                "rules": [],
                "slug": "telepathy",
                "source": {
                    "value": ""
                },
                "traits": {
                    "custom": "",
                    "rarity": {
                        "value": "common"
                    },
                    "value": [
                        "aura",
                        "divination",
                        "magical"
                    ]
                },
                "trigger": {
                    "value": ""
                },
                "weapon": {
                    "value": ""
                }
            },
            "effects": [],
            "flags": {
                "core": {
                    "sourceId": "Compendium.pf2e.bestiary-ability-glossary-srd.kdhbPaBMK1d1fpbA"
                }
            },
            "img": "systems/pf2e/icons/default-icons/mystery-man.svg",
            "name": "Telepathy (30 Feet)",
            "sort": 300000,
            "type": "action"
        },
        {
            "_id": "QxQT0BLNv0boSPAf",
            "data": {
                "actionCategory": {
                    "value": "offensive"
                },
                "actionType": {
                    "value": "action"
                },
                "actions": {
                    "value": 1
                },
                "description": {
                    "value": "<p><strong>Requirements</strong> The incutilis is attached to a puppet;</p>\n<p><strong>Effect</strong> The incutilis abandons its puppet, detaching and separating from its nervous system.</p>\n<p>If the puppet was still alive, it's unconscious and temporarily immune to that incutilis's Puppetmaster ability for 24 hours.</p>"
                },
                "requirements": {
                    "value": ""
                },
                "rules": [],
                "slug": null,
                "source": {
                    "value": ""
                },
                "traits": {
                    "custom": "",
                    "rarity": {
                        "value": "common"
                    },
                    "value": [
                        "manipulate"
                    ]
                },
                "trigger": {
                    "value": ""
                },
                "weapon": {
                    "value": ""
                }
            },
            "effects": [],
            "flags": {},
            "img": "systems/pf2e/icons/actions/OneAction.webp",
            "name": "Abandon Puppet",
            "sort": 400000,
            "type": "action"
        },
        {
            "_id": "TjBokB0HyB1Xj2dM",
            "data": {
                "actionCategory": {
                    "value": "offensive"
                },
                "actionType": {
                    "value": "action"
                },
                "actions": {
                    "value": 3
                },
                "description": {
                    "value": "<p>An incutilis drives tendrils into a Small or Medium living creature that's unconscious or restrained by the incutilis. It attaches and injects the unfortunate host with enzymes to take over control of the creature's nervous system, turning the host into a puppet controlled by the incutilis.</p>\n<p>The puppet becomes @Compendium[pf2e.conditionitems.Dying]{Dying 2} and is @Compendium[pf2e.conditionitems.Controlled]{Controlled} by the incutilis. If the puppet dies, its body remains under the control of the incutilis until it's destroyed or the incutilis Abandons the Puppet. If the puppet recovers from the dying condition, the incutilis immediately Abandons the Puppet.</p>\n<p>While controlling a puppet, the incutilis is attached to the puppet's head (or elsewhere, if its brain is in an unconventional location) and moves along with it. The puppet uses its own AC, Hit Points, Fortitude and Reflex saves, and physical Strikes, but it uses the incutilis's Will save. The puppet can perform only basic actions and untrained uses of the Athletics and Stealth skills while controlled.</p>\n<p>Any attack that deals damage to the puppet also deals 1 mental damage to the incutilis. Area effects are applied to both the incutilis and puppet. The incutilis always has lesser cover while in control of a puppet.</p>"
                },
                "requirements": {
                    "value": ""
                },
                "rules": [],
                "slug": null,
                "source": {
                    "value": ""
                },
                "traits": {
                    "custom": "",
                    "rarity": {
                        "value": "common"
                    },
                    "value": [
                        "manipulate"
                    ]
                },
                "trigger": {
                    "value": ""
                },
                "weapon": {
                    "value": ""
                }
            },
            "effects": [],
            "flags": {},
            "img": "systems/pf2e/icons/actions/ThreeActions.webp",
            "name": "Puppetmaster",
            "sort": 500000,
            "type": "action"
        },
        {
            "_id": "uQmt7JbKVVMAsd5R",
            "data": {
                "actionCategory": {
                    "value": "offensive"
                },
                "actionType": {
                    "value": "action"
                },
                "actions": {
                    "value": 1
                },
                "description": {
                    "value": "<p>@Localize[PF2E.NPC.Abilities.Glossary.Grab]</p>"
                },
                "requirements": {
                    "value": ""
                },
                "rules": [],
                "slug": "grab",
                "source": {
                    "value": ""
                },
                "traits": {
                    "custom": "",
                    "rarity": {
                        "value": "common"
                    },
                    "value": []
                },
                "trigger": {
                    "value": ""
                },
                "weapon": {
                    "value": ""
                }
            },
            "effects": [],
            "flags": {
                "core": {
                    "sourceId": "Compendium.pf2e.bestiary-ability-glossary-srd.Tkd8sH4pwFIPzqTr"
                }
            },
            "img": "systems/pf2e/icons/actions/OneAction.webp",
            "name": "Grab",
            "sort": 600000,
            "type": "action"
        },
        {
            "_id": "GpfNdkyTb766buYF",
            "data": {
                "description": {
                    "value": ""
                },
                "item": {
                    "value": 0
                },
                "mod": {
                    "value": 8
                },
                "proficient": {
                    "value": 0
                },
                "rules": [],
                "slug": null,
                "source": {
                    "value": ""
                },
                "traits": {
                    "custom": "",
                    "rarity": {
                        "value": "common"
                    },
                    "value": []
                }
            },
            "effects": [],
            "flags": {},
            "img": "systems/pf2e/icons/default-icons/lore.svg",
            "name": "Athletics",
            "sort": 700000,
            "type": "lore"
        },
        {
            "_id": "kApQv2Hm01vTgCFj",
            "data": {
                "description": {
                    "value": ""
                },
                "item": {
                    "value": 0
                },
                "mod": {
                    "value": 5
                },
                "proficient": {
                    "value": 0
                },
                "rules": [],
                "slug": null,
                "source": {
                    "value": ""
                },
                "traits": {
                    "custom": "",
                    "rarity": {
                        "value": "common"
                    },
                    "value": []
                }
            },
            "effects": [],
            "flags": {},
            "img": "systems/pf2e/icons/default-icons/lore.svg",
            "name": "Deception",
            "sort": 800000,
            "type": "lore"
        },
        {
            "_id": "kGU1v5SMCJkRJ1Ml",
            "data": {
                "description": {
                    "value": ""
                },
                "item": {
                    "value": 0
                },
                "mod": {
                    "value": 9
                },
                "proficient": {
                    "value": 0
                },
                "rules": [],
                "slug": null,
                "source": {
                    "value": ""
                },
                "traits": {
                    "custom": "",
                    "rarity": {
                        "value": "common"
                    },
                    "value": []
                }
            },
            "effects": [],
            "flags": {},
            "img": "systems/pf2e/icons/default-icons/lore.svg",
            "name": "Stealth",
            "sort": 900000,
            "type": "lore"
        }
    ],
    "name": "Incutilis",
    "token": {
        "disposition": -1,
        "height": 0.5,
        "img": "systems/pf2e/icons/default-icons/npc.svg",
        "name": "Incutilis",
        "width": 0.5
    },
    "type": "npc"
}
