{
    "_id": "DpY6k60UrpvKgjx2",
    "content": "<table class=\"pf2-table\">\n<thead>\n<tr>\n<th>\n<h3><strong>Name</strong></h3>\n</th>\n<th>\n<h3><strong>Crit Effect</strong></h3>\n</th>\n<th>\n<h3><strong>Type</strong></h3>\n</th>\n</tr>\n</thead>\n<tbody>\n<tr>\n<td>Wait, What?</td>\n<td>You are @Compendium[pf2e.conditionitems.Confused]{Confused}></td>\n<td>\n<h3>Melee</h3>\n</td>\n</tr>\n<tr>\n<td>Don't hit Me!</td>\n<td>Until the end of your next turn, each time you miss with a ranged attack targeting enemy adjacent to any of your allies, you hit one of those adjacent allies instead (determined randomly by the GM).</td>\n<td>\n<h3>Ranged</h3>\n</td>\n</tr>\n<tr>\n<td>Pinched Nerve</td>\n<td>Until healed, you take a -10-foot circumstance penalty to land Speed and are clumsy 1.</td>\n<td>\n<h3>Unarmed</h3>\n</td>\n</tr>\n<tr>\n<td>Mental Slip</td>\n<td>You are controlled by the target until the end of your next turn.</td>\n<td>\n<h3>Spell</h3>\n</td>\n</tr>\n</tbody>\n</table>\n<h3 style=\"text-align: left;\"> </h3>",
    "flags": {},
    "name": "Critical Fumble Deck #4",
    "permission": {
        "default": 0
    }
}
