{
    "_id": "UheptedVuKxVHSQY",
    "content": "<table class=\"pf2-table\">\n<thead>\n<tr>\n<th>\n<h3><strong>Name</strong></h3>\n</th>\n<th>\n<h3><strong>Crit Effect</strong></h3>\n</th>\n<th>\n<h3><strong>Type</strong></h3>\n</th>\n</tr>\n</thead>\n<tbody>\n<tr>\n<td>Spinning Swing</td>\n<td>You are sickened 2.</td>\n<td>\n<h3>Melee</h3>\n</td>\n</tr>\n<tr>\n<td>Nicked</td>\n<td>You take 1 persistent bleed damage.</td>\n<td>\n<h3>Ranged</h3>\n</td>\n</tr>\n<tr>\n<td>Twisted Up</td>\n<td>You are encumbered until you spend 2 Interact actions to free your self.</td>\n<td>\n<h3>Unarmed</h3>\n</td>\n</tr>\n<tr>\n<td>Apprentice Move</td>\n<td>Reroll the attack roll, targeting the creature closest to the target (excluding yourself).</td>\n<td>\n<h3>Spell</h3>\n</td>\n</tr>\n</tbody>\n</table>\n<h3 style=\"text-align: left;\"> </h3>",
    "flags": {},
    "name": "Critical Fumble Deck #25",
    "permission": {
        "default": 0
    }
}
