{
    "_id": "K2U6PVeYrvNagqti",
    "content": "<table class=\"pf2-table\">\n<thead>\n<tr>\n<th>\n<h3><strong>Name</strong></h3>\n</th>\n<th>\n<h3><strong>Crit Effect</strong></h3>\n</th>\n<th>\n<h3><strong>Type</strong></h3>\n</th>\n</tr>\n</thead>\n<tbody>\n<tr>\n<td>Pin Prick</td>\n<td>You take 1 persistent bleed damage.</td>\n<td>\n<h3>Melee</h3>\n</td>\n</tr>\n<tr>\n<td>Spilled Ammo</td>\n<td>The ammunition from the weapon you're using falls from its container onto the ground. You can spend 1 Interact action to pick up one piece of ammunition spilled this way.</td>\n<td>\n<h3>Ranged</h3>\n</td>\n</tr>\n<tr>\n<td>Just a Taste</td>\n<td>You hit an ally adjacent to you or the target.</td>\n<td>\n<h3>Unarmed</h3>\n</td>\n</tr>\n<tr>\n<td>Tiring Spell</td>\n<td>You are fatigued.</td>\n<td>\n<h3>Spell</h3>\n</td>\n</tr>\n</tbody>\n</table>\n<h3 style=\"text-align: left;\"> </h3>",
    "flags": {},
    "name": "Critical Fumble Deck #27",
    "permission": {
        "default": 0
    }
}
