{
    "_id": "iZYZTEtihsVkbRKR",
    "content": "<table class=\"pf2-table\">\n<thead>\n<tr>\n<th>\n<h3><strong>Name</strong></h3>\n</th>\n<th>\n<h3><strong>Crit Effect</strong></h3>\n</th>\n<th>\n<h3><strong>Type</strong></h3>\n</th>\n</tr>\n</thead>\n<tbody>\n<tr>\n<td>\n<h3 style=\"box-sizing: border-box; user-select: text; color: #191813;\">Split Open</h3>\n</td>\n<td>\n<h3>The target takes 1d6 persistent bleed damage.</h3>\n</td>\n<td>\n<h3>Bludgeoning</h3>\n</td>\n</tr>\n<tr>\n<td>\n<h3>Send 'em Reeling</h3>\n</td>\n<td>\n<h3>The target is flat-footed until the end of its next turn.</h3>\n</td>\n<td>\n<h3>Piercing</h3>\n</td>\n</tr>\n<tr>\n<td>\n<h3>Shattered Jaw</h3>\n</td>\n<td>\n<h3>Until healed, the target is wounded 1 and can't speak, eat, drink, or make attacks with its jaws.</h3>\n</td>\n<td>\n<h3>Slashing</h3>\n</td>\n</tr>\n<tr>\n<td>\n<h3>Protective Charm</h3>\n</td>\n<td>\n<h3>You gain a +2 status bonus to AC and all saving throws until t he end of your next turn.</h3>\n</td>\n<td>\n<h3>Bomb or Spell</h3>\n</td>\n</tr>\n</tbody>\n</table>\n<h3 style=\"text-align: left;\"> </h3>",
    "flags": {},
    "name": "Critical Hit Deck #8",
    "permission": {
        "default": 0
    }
}
