{
    "_id": "tuZnRWHixLArvaIf",
    "data": {
        "actionCategory": {
            "value": ""
        },
        "actionType": {
            "value": "reaction"
        },
        "actions": {
            "value": null
        },
        "description": {
            "value": "<p><strong>Trigger</strong> An enemy damages your ally, and both are within 15 feet of you</p>\n<hr />\n<p>Your foe hesitates under the weight of sin as visions of redemption play in their mind's eye. The foe must choose one of the following options:</p>\n<ul>\n<li>The ally is unharmed by the triggering damage.</li>\n<li>The ally gains resistance to all damage against the triggering damage equal to 2 + your level. After the damaging effect is applied, the enemy becomes @Compendium[pf2e.conditionitems.Enfeebled]{Enfeebled 2} until the end of its next turn.</li>\n</ul>"
        },
        "requirements": {
            "value": ""
        },
        "rules": [],
        "source": {
            "value": "Pathfinder Core Rulebook"
        },
        "traits": {
            "custom": "",
            "rarity": {
                "value": "common"
            },
            "value": [
                "champion"
            ]
        },
        "trigger": {
            "value": ""
        },
        "weapon": {
            "value": ""
        }
    },
    "effects": [],
    "flags": {},
    "img": "systems/pf2e/icons/actions/Reaction.webp",
    "name": "Glimpse of Redemption",
    "type": "action"
}
