{
    "_id": "y3TTKFLPbP09HZUW",
    "content": "<p><strong>Deities </strong>@Compendium[pf2e.deities.Alglenweis]{Alglenweis}, @Compendium[pf2e.deities.Gozreh]{Gozreh}, @Compendium[pf2e.deities.Hshurha]{Hshurha}, @Compendium[pf2e.deities.Kostchtchie]{Kostchtchie}, @Compendium[pf2e.deities.Pulura]{Pulura}, @Compendium[pf2e.deities.Yamatsumi]{Yamatsumi}</p><p><strong>Domain Spell</strong> @Compendium[pf2e.spells-srd.Winter Bolt]{Winter Bolt}; <strong>Advanced Domain Spell</strong> @Compendium[pf2e.spells-srd.Diamond Dust]{Diamond Dust}</p><p><span id=\"ctl00_MainContent_DetailedOutput\">You control ice, snow, and freezing temperatures.</span></p><p></p>",
    "flags": {},
    "name": "Cold Domain",
    "permission": {
        "default": 0
    }
}
