{
    "_id": "ywn4ODaUt382Z3Nz",
    "content": "<p><strong>Deities</strong> @Compendium[pf2e.deities.Casandalee]{Casandalee}, @Compendium[pf2e.deities.Cernunnos]{Cernunnos}, @Compendium[pf2e.deities.Chamidu]{Chamidu}, @Compendium[pf2e.deities.Gozreh]{Gozreh}, @Compendium[pf2e.deities.Hei Feng]{Hei Feng}, @Compendium[pf2e.deities.Ranginori]{Ranginori}</p><p><strong>Domain Spell</strong> @Compendium[pf2e.spells-srd.Charged Javelin]{Charged Javelin}; <strong>Advanced Domain Spell</strong> @Compendium[pf2e.spells-srd.Bottle the Storm]{Bottle the Storm}</p><p><span id=\"ctl00_MainContent_DetailedOutput\">You control electricity, thunder, and storms.</span></p><p></p>",
    "flags": {},
    "name": "Lightning Domain",
    "permission": {
        "default": 0
    }
}
