{
    "_id": "BBj6jrdyff7QOgjH",
    "data": {
        "actionCategory": {
            "value": ""
        },
        "actionType": {
            "value": "passive"
        },
        "actions": {
            "value": null
        },
        "description": {
            "value": "<p>In the heat of battle, you are capable of amazing feats of strength.</p>\n<p>While you are @Compendium[pf2e.actionspf2e.Rage]{Raging}, increase your encumbered and maximum Bulk limits by 2; you also gain a +1 status bonus to Athletics checks to lift heavy objects, @Compendium[pf2e.actionspf2e.Escape]{Escape}, and @Compendium[pf2e.actionspf2e.Force Open]{Force Open}.</p>"
        },
        "featType": {
            "value": "class"
        },
        "level": {
            "value": 1
        },
        "location": "",
        "prerequisites": {
            "value": []
        },
        "rules": [
            {
                "key": "FlatModifier",
                "label": "Adrenaline Rush (Lift heavy objects, escape, force open)",
                "predicate": {
                    "all": [
                        "rage"
                    ],
                    "any": [
                        "action:escape",
                        "action:force-open",
                        "lift-heavy-object"
                    ]
                },
                "selector": "athletics",
                "type": "status",
                "value": 1
            }
        ],
        "source": {
            "value": "Pathfinder Advanced Player's Guide"
        },
        "traits": {
            "custom": "",
            "rarity": {
                "value": "common"
            },
            "value": [
                "barbarian",
                "rage"
            ]
        }
    },
    "effects": [],
    "flags": {},
    "img": "systems/pf2e/icons/features/feats/feats.webp",
    "name": "Adrenaline Rush",
    "type": "feat"
}
