{
    "_id": "0PcVi7eav6PMLOPl",
    "data": {
        "actionCategory": {
            "value": ""
        },
        "actionType": {
            "value": "passive"
        },
        "actions": {
            "value": null
        },
        "description": {
            "value": "<p>You can remove conditions with divine grace.</p>\n<p>You can sacrifice one <em>@Compendium[pf2e.spells-srd.Heal]{Heal}</em> spell you've prepared in your extra slots from healing font to cast one of the following spells instead: <em>@Compendium[pf2e.spells-srd.Remove Curse]{Remove Curse}</em>, <em>@Compendium[pf2e.spells-srd.Remove Disease]{Remove Disease}</em>, <em>@Compendium[pf2e.spells-srd.Remove Paralysis]{Remove Paralysis}</em>, or <em>@Compendium[pf2e.spells-srd.Restoration]{Restoration}</em>. The spell is heightened to the same level as the heal spell you sacrificed.</p>"
        },
        "featType": {
            "value": "class"
        },
        "level": {
            "value": 8
        },
        "location": "",
        "prerequisites": {
            "value": [
                {
                    "value": "healing font"
                }
            ]
        },
        "rules": [],
        "source": {
            "value": "Pathfinder Core Rulebook"
        },
        "traits": {
            "custom": "",
            "rarity": {
                "value": "common"
            },
            "value": [
                "cleric"
            ]
        }
    },
    "effects": [],
    "flags": {},
    "img": "systems/pf2e/icons/features/feats/feats.webp",
    "name": "Channeled Succor",
    "type": "feat"
}
