{
    "_id": "si8FGX2ZRxetdVHp",
    "data": {
        "actionCategory": {
            "value": "offensive"
        },
        "actionType": {
            "value": "action"
        },
        "actions": {
            "value": 1
        },
        "description": {
            "value": "<p><strong>Requirements</strong> Your eidolon has a creature @Compendium[pf2e.conditionitems.Grabbed]{Grabbed} or @Compendium[pf2e.conditionitems.Restrained]{Restrained}.</p>\n<p>Your eidolon constricts the creature, dealing [[/r @details.level.value+@abilities.str.mod #bludgeoning]]{bludgeoning damage} equal to your eidolon's level plus its Strength modifier, with a basic Fortitude save against your spell DC.</p>"
        },
        "featType": {
            "value": "class"
        },
        "level": {
            "value": 8
        },
        "location": "",
        "prerequisites": {
            "value": []
        },
        "rules": [],
        "source": {
            "value": ""
        },
        "traits": {
            "custom": "",
            "rarity": {
                "value": "common"
            },
            "value": [
                "eidolon",
                "evolution",
                "summoner"
            ]
        }
    },
    "effects": [],
    "flags": {},
    "img": "systems/pf2e/icons/default-icons/feat.svg",
    "name": "Constricting Hold",
    "type": "feat"
}
