{
    "_id": "1MWL2uEmyiOfYtJn",
    "data": {
        "actionCategory": {
            "value": ""
        },
        "actionType": {
            "value": "passive"
        },
        "actions": {
            "value": null
        },
        "description": {
            "value": "<p>It's harder for your foes to regain their grip when you knock their weapon partially out of their hands.</p>\n<p>When you succeed at an Athletics check to @Compendium[pf2e.actionspf2e.Disarm]{Disarm}, the circumstance bonus and penalty from Disarm last until the end of your next turn, instead of until the beginning of the target's next turn. The target can use an Interact action to adjust their grip and remove this effect.</p>\n<p>If your swashbuckler's style is gymnast and you succeed at your Athletics check to Disarm a foe, you gain @Compendium[pf2e.classfeatures.Panache]{Panache}.</p>"
        },
        "featType": {
            "value": "class"
        },
        "level": {
            "value": 1
        },
        "prerequisites": {
            "value": []
        },
        "rules": [],
        "source": {
            "value": "Pathfinder Advanced Player's Guide"
        },
        "traits": {
            "custom": "",
            "rarity": {
                "value": "common"
            },
            "value": [
                "swashbuckler"
            ]
        }
    },
    "effects": [],
    "flags": {},
    "img": "systems/pf2e/icons/features/feats/feats.webp",
    "name": "Disarming Flair",
    "type": "feat"
}
