{
    "_id": "uY03kVQBA81gbTj9",
    "data": {
        "actionCategory": {
            "value": "defensive"
        },
        "actionType": {
            "value": "reaction"
        },
        "actions": {
            "value": null
        },
        "description": {
            "value": "<p><strong>Trigger</strong> An enemy hits you with a melee Strike or a melee spell attack roll, or you fail a save against an enemy's spell.</p>\n<p><strong>Requirements</strong> You are wielding a shield or have the <em>@Compendium[pf2e.spells-srd.Shield]{Shield}</em> spell prepared.</p>\n<hr />\n<p>You immediately Raise a Shield or cast <em>shield</em>. The circumstance bonus applies to your defenses when determining the outcome of the triggering attack or spell.</p>"
        },
        "featType": {
            "value": "class"
        },
        "level": {
            "value": 4
        },
        "location": "",
        "prerequisites": {
            "value": [
                {
                    "value": "sparkling targe hybrid study"
                }
            ]
        },
        "rules": [],
        "source": {
            "value": ""
        },
        "traits": {
            "custom": "",
            "rarity": {
                "value": "common"
            },
            "value": [
                "magus"
            ]
        }
    },
    "effects": [],
    "flags": {},
    "img": "systems/pf2e/icons/features/feats/feats.webp",
    "name": "Emergency Targe",
    "type": "feat"
}
