{
    "_id": "HxkAhxcGvua6SkfS",
    "data": {
        "actionCategory": {
            "value": ""
        },
        "actionType": {
            "value": "passive"
        },
        "actions": {
            "value": null
        },
        "description": {
            "value": "<p>Your silvertongue mutagen transcends languages and plausibility.</p>\n<p>When affected by a @Compendium[pf2e.equipment-srd.Silvertongue Mutagen (Lesser)]{Silvertongue Mutagen} you have created, you ignore circumstance penalties to Deception, Diplomacy, Intimidation, and Performance checks.</p>\n<p>In addition, your words transcend linguistic barriers; everyone listening to you speak hears your words as if you were speaking in their own language (though you do not actually speak that language, nor does this ability allow you to understand any additional languages).</p>"
        },
        "featType": {
            "value": "class"
        },
        "level": {
            "value": 14
        },
        "location": "",
        "prerequisites": {
            "value": []
        },
        "rules": [],
        "source": {
            "value": "Pathfinder Core Rulebook"
        },
        "traits": {
            "custom": "",
            "rarity": {
                "value": "common"
            },
            "value": [
                "alchemist"
            ]
        }
    },
    "effects": [],
    "flags": {},
    "img": "systems/pf2e/icons/features/feats/feats.webp",
    "name": "Glib Mutagen",
    "type": "feat"
}
