{
    "_id": "7jqBwXq9jVsghCva",
    "data": {
        "actionCategory": {
            "value": ""
        },
        "actionType": {
            "value": "passive"
        },
        "actions": {
            "value": null
        },
        "description": {
            "value": "<p>Your time gossiping in fashionable salons keeps you informed on every topic.</p>\n<p>You are trained in Gossip Lore, a special Lore skill that can be used only to @Compendium[pf2e.actionspf2e.Recall Knowledge (Lore)]{Recall Knowledge}, but on any topic. If you fail a check to Recall Knowledge with Gossip Lore, you get the effects of the @Compendium[pf2e.feats-srd.Dubious Knowledge]{Dubious Knowledge} skill feat.</p>\n<p>If you have legendary proficiency in Society, you gain expert proficiency in Gossip Lore, but you can't increase your proficiency rank in Gossip Lore by any other means.</p>"
        },
        "featType": {
            "value": "archetype"
        },
        "level": {
            "value": 4
        },
        "prerequisites": {
            "value": [
                {
                    "value": "Dandy Dedication"
                }
            ]
        },
        "rules": [],
        "source": {
            "value": "Pathfinder Advanced Player's Guide"
        },
        "traits": {
            "custom": "",
            "rarity": {
                "value": "common"
            },
            "value": [
                "archetype"
            ]
        }
    },
    "effects": [],
    "flags": {},
    "img": "systems/pf2e/icons/features/feats/feats.webp",
    "name": "Gossip Lore",
    "type": "feat"
}
