{
    "_id": "MYzRfNExDYp25rro",
    "data": {
        "actionCategory": {
            "value": ""
        },
        "actionType": {
            "value": "passive"
        },
        "actions": {
            "value": null
        },
        "description": {
            "value": "<p>You've combined your social skills and combat training to become a talented combat leader. Choose Diplomacy or Intimidation. You become trained in that skill or become an expert if you were already trained in it.</p>\n<p>In addition, you're surrounded by a marshal's aura in a 10-foot emanation. Your aura has the emotion, mental, and visual traits and grants you and allies within the aura a +1 status bonus to saving throws against fear.</p>\n<p><strong>Special</strong> You can't select another dedication feat until you have gained two other feats from the marshal archetype.</p>"
        },
        "featType": {
            "value": "archetype"
        },
        "level": {
            "value": 2
        },
        "prerequisites": {
            "value": [
                {
                    "value": "trained in martial weapons and either Diplomacy or Intimidation"
                }
            ]
        },
        "rules": [],
        "source": {
            "value": "Pathfinder Advanced Player's Guide"
        },
        "traits": {
            "custom": "",
            "rarity": {
                "value": "common"
            },
            "value": [
                "archetype",
                "dedication"
            ]
        }
    },
    "effects": [],
    "flags": {},
    "img": "systems/pf2e/icons/features/feats/feats.webp",
    "name": "Marshal Dedication",
    "type": "feat"
}
