{
    "_id": "S36WQ8o2MvPxQp0p",
    "data": {
        "actionCategory": {
            "value": ""
        },
        "actionType": {
            "value": "passive"
        },
        "actions": {
            "value": null
        },
        "description": {
            "value": "<p>Scaring off multiple people at once is your specialty. When you Demoralize, you can target up to 2 creatures within 30 feet of you at once. If you are a master of Intimidation, you can Demoralize up to 4 creatures at once; if you're legendary, you can Demoralize up to 8 creatures at once.</p>"
        },
        "featType": {
            "value": "archetype"
        },
        "level": {
            "value": 10
        },
        "location": "",
        "prerequisites": {
            "value": [
                {
                    "value": "Golden League Xun Dedication"
                },
                {
                    "value": "expert in Intimidation"
                }
            ]
        },
        "rules": [],
        "source": {
            "value": "Pathfinder #167: Ready? Fight!"
        },
        "traits": {
            "custom": "",
            "rarity": {
                "value": "uncommon"
            },
            "value": [
                "archetype"
            ]
        }
    },
    "effects": [],
    "flags": {},
    "img": "systems/pf2e/icons/default-icons/feats.webp",
    "name": "Menacing Prowess",
    "type": "feat"
}
