{
    "_id": "lh3STEvbGnP7jVMr",
    "data": {
        "actionCategory": {
            "value": ""
        },
        "actionType": {
            "value": "passive"
        },
        "actions": {
            "value": null
        },
        "description": {
            "value": "<p>You're particularly adept at crafting ammunition and bombs. Your advanced alchemy level for ammunition and bombs increases to your level – 3.</p>"
        },
        "featType": {
            "value": "class"
        },
        "level": {
            "value": 6
        },
        "location": "",
        "prerequisites": {
            "value": [
                {
                    "value": "Munitions Crafter"
                },
                {
                    "value": "expert in Crafting"
                }
            ]
        },
        "rules": [
            {
                "key": "ActiveEffectLike",
                "mode": "upgrade",
                "path": "data.crafting.entries.munitionsCrafter.maxItemLevel",
                "value": "@details.level.value - 3"
            }
        ],
        "source": {
            "value": ""
        },
        "traits": {
            "custom": "",
            "rarity": {
                "value": "common"
            },
            "value": [
                "gunslinger"
            ]
        }
    },
    "effects": [],
    "flags": {},
    "img": "systems/pf2e/icons/default-icons/feats.webp",
    "name": "Munitions Machinist",
    "type": "feat"
}
