{
    "_id": "Wsrw68pklQyaScMX",
    "data": {
        "actionCategory": {
            "value": ""
        },
        "actionType": {
            "value": "passive"
        },
        "actions": {
            "value": null
        },
        "description": {
            "value": "<p>You can pronounce and repeat words with near-perfect accuracy even if you don't understand their meaning, and you can write them down in a phonetic script that allows you or another creature with Phonetic Training to read it later. Even if the words are in a language with sound you can't pronounce, you can faithfully transcribe them. Memorizing long sequences of words remains just as difficult as it is normally.</p>"
        },
        "featType": {
            "value": "archetype"
        },
        "level": {
            "value": 4
        },
        "prerequisites": {
            "value": [
                {
                    "value": "Linguist Dedication"
                },
                {
                    "value": "expert in Society"
                }
            ]
        },
        "rules": [],
        "source": {
            "value": "Pathfinder Advanced Player's Guide"
        },
        "traits": {
            "custom": "",
            "rarity": {
                "value": "common"
            },
            "value": [
                "archetype",
                "skill"
            ]
        }
    },
    "effects": [],
    "flags": {},
    "img": "systems/pf2e/icons/features/feats/feats.webp",
    "name": "Phonetic Training",
    "type": "feat"
}
