{
    "_id": "AiDelwfA0uVT2lN3",
    "data": {
        "actionCategory": {
            "value": ""
        },
        "actionType": {
            "value": "passive"
        },
        "actions": {
            "value": null
        },
        "description": {
            "value": "<p>Your eidolon gains an evolution integral to its form, and it comes more easily than your other synergies. You gain one evolution feat from the following list:</p>\n<ul>\n<li>@Compendium[pf2e.feats-srd.Airborne Form]{Airborne Form}</li>\n<li>@Compendium[pf2e.feats-srd.Burrowing Form]{Burrowing Form}</li>\n<li>@Compendium[pf2e.feats-srd.Ever-Vigilant Senses]{Ever-Vigilant Senses}</li>\n<li>@Compendium[pf2e.feats-srd.Hulking Size]{Hulking Size}</li>\n</ul>\n<p>For the purpose of meeting its prerequisites, your summoner level is equal to your character level - 4.</p>"
        },
        "featType": {
            "value": "archetype"
        },
        "level": {
            "value": 14
        },
        "location": "",
        "prerequisites": {
            "value": [
                {
                    "value": "Advanced Synergy"
                }
            ]
        },
        "rules": [],
        "source": {
            "value": ""
        },
        "traits": {
            "custom": "",
            "rarity": {
                "value": "common"
            },
            "value": [
                "archetype"
            ]
        }
    },
    "effects": [],
    "flags": {},
    "img": "systems/pf2e/icons/default-icons/feat.svg",
    "name": "Signature Synergy",
    "type": "feat"
}
