{
    "_id": "Hy8SPadSjukKq078",
    "data": {
        "actionCategory": {
            "value": ""
        },
        "actionType": {
            "value": "passive"
        },
        "actions": {
            "value": null
        },
        "description": {
            "value": "<p>You possess horns, a tail, or red eyes, or could otherwise be mistaken for a tiefling. You gain the trained proficiency rank in Intimidation. If you would automatically become trained in Intimidation (from your background or class, for example), you instead become trained in a skill of your choice. You gain the @Compendium[pf2e.feats-srd.Intimidating Glare]{Intimidating Glare} skill feat, as well as a +2 circumstance bonus on Deception checks to Impersonate when pretending to be a version of yourself who is a tiefling.</p>"
        },
        "featType": {
            "value": "ancestry"
        },
        "level": {
            "value": 1
        },
        "location": "",
        "prerequisites": {
            "value": []
        },
        "rules": [],
        "source": {
            "value": "Pathfinder Lost Omens: Ancestry Guide"
        },
        "traits": {
            "custom": "",
            "rarity": {
                "value": "common"
            },
            "value": [
                "ifrit"
            ]
        }
    },
    "effects": [],
    "flags": {},
    "img": "systems/pf2e/icons/features/feats/feats.webp",
    "name": "Sinister Appearance",
    "type": "feat"
}
