{
    "_id": "EiiCCJqWnN5RYMV4",
    "data": {
        "actionCategory": {
            "value": ""
        },
        "actionType": {
            "value": "passive"
        },
        "actions": {
            "value": null
        },
        "description": {
            "value": "<p><strong>Frequency</strong> once per day</p>\n<hr />\n<p>You've perfected your ability to keep up with all the skills you've learned over your long life, so you're almost never truly untrained at a skill. You reflect on your life experiences, changing the skills you selected with @Compendium[pf2e.feats-srd.Ancestral Longevity]{Ancestral Longevity} and @Compendium[pf2e.feats-srd.Expert Longevity]{Expert Longevity}.</p>"
        },
        "featType": {
            "value": "ancestry"
        },
        "level": {
            "value": 13
        },
        "prerequisites": {
            "value": [
                {
                    "value": "Expert Longevity"
                }
            ]
        },
        "rules": [],
        "source": {
            "value": "Pathfinder Core Rulebook"
        },
        "traits": {
            "custom": "",
            "rarity": {
                "value": "common"
            },
            "value": [
                "elf"
            ]
        }
    },
    "effects": [],
    "flags": {},
    "img": "systems/pf2e/icons/features/feats/feats.webp",
    "name": "Universal Longevity",
    "type": "feat"
}
