{
    "_id": "yBZAmXr265EHPpj3",
    "data": {
        "actionCategory": {
            "value": ""
        },
        "actionType": {
            "value": "passive"
        },
        "actions": {
            "value": null
        },
        "description": {
            "value": "<p>You can use Survival in place of Perception to roll initiative when in the sky in a natural location (not a structure) even if you weren't tracking or otherwise using Survival before the encounter.</p>\n<p>You can also use Survival instead of Perception to notice traps in natural locations in the sky; if you find a snare in this way, you can also use Survival instead of Thievery to Disable the Device.</p>\n<hr />\n<p><strong>Special</strong> You can select this feat more than once. Each time you select it, the feat applies to a new type of terrain.</p>"
        },
        "featType": {
            "value": "skill"
        },
        "level": {
            "value": 2
        },
        "location": "",
        "prerequisites": {
            "value": [
                {
                    "value": "expert in Survival"
                }
            ]
        },
        "rules": [],
        "source": {
            "value": ""
        },
        "traits": {
            "custom": "",
            "rarity": {
                "value": "common"
            },
            "value": [
                "general",
                "skill"
            ]
        }
    },
    "effects": [],
    "flags": {},
    "img": "systems/pf2e/icons/features/feats/feats.webp",
    "name": "Wilderness Spotter (Sky)",
    "type": "feat"
}
