{
    "_id": "zBS1qFyIpFuCGhWW",
    "data": {
        "actionCategory": {
            "value": "defensive"
        },
        "actionType": {
            "value": "reaction"
        },
        "actions": {
            "value": null
        },
        "description": {
            "value": "<p><strong>Trigger</strong> A creature you can see targets you with an attack against your AC.</p>\n<hr />\n<p>When your foes try to attack you, you always seem to have some outlandish invention you can pull out at the last second to protect you from whatever attack they throw at you. Describe a device you're attempting to use to protect yourself from the foe's attack-for instance, when attacked by a shocker lizard's shock Strike, you might pull out a specially grounded lightning rod from that time you tried to power an invention by harnessing a thunderstorm! Using an invention to defend in this way means that the attack roll for the triggering attack targets your Crafting DC instead of your AC.</p>\n<p>Since you're using your Crafting DC instead of your AC, any penalties to your AC don't apply, but this doesn't remove any conditions or other effects that are causing you such penalties. For instance, if you were @Compendium[pf2e.conditionitems.Flat-Footed]{Flat-Footed} and used an invention to defend against a sneak attack, you'd still take the extra precision damage if you were hit, even though the -2 penalty to AC from being flat-footed wouldn't apply to your Crafting DC.</p>"
        },
        "featType": {
            "value": "class"
        },
        "level": {
            "value": 16
        },
        "location": "",
        "prerequisites": {
            "value": []
        },
        "rules": [],
        "source": {
            "value": ""
        },
        "traits": {
            "custom": "",
            "rarity": {
                "value": "common"
            },
            "value": [
                "inventor"
            ]
        }
    },
    "effects": [],
    "flags": {},
    "img": "systems/pf2e/icons/default-icons/feats.webp",
    "name": "You Failed to Account For... This!",
    "type": "feat"
}
