{
    "_id": "18xDKYPDBLEv2myX",
    "data": {
        "additionalLanguages": {
            "count": 0,
            "custom": "",
            "value": [
                "dwarven",
                "elven",
                "gnomish",
                "goblin",
                "halfling",
                "sylvan"
            ]
        },
        "boosts": {
            "0": {
                "value": [
                    "dex"
                ]
            },
            "1": {
                "value": []
            },
            "2": {
                "value": [
                    "str",
                    "dex",
                    "con",
                    "int",
                    "wis",
                    "cha"
                ]
            }
        },
        "description": {
            "value": "<p><em>Tengus are a gregarious and resourceful people that have spread far and wide from their ancestral home in Tian Xia, collecting and combining whatever innovations and traditions they happen across with those from their own long history.</em></p>\n<hr />\n<p>Tengus are survivalists and conversationalists, equally at home living off the wilderness and finding a niche in dense cities. They accumulate knowledge, tools, and companions, adding them to their collection as they travel.</p>\n<p>The tengu diaspora has spread across Golarion in search of a better life, bringing their skill with blade crafting to lands far from their home. In maritime regions, tengus notably work as fishers, blacksmiths, and 'jinx eaters'—members of ships' crews who are believed, accurately or otherwise, to absorb misfortune. Having lived in a variety of conditions and locations, tengus tend to be nonjudgmental, especially with regard to social station, though their willingness to associate with lawbreakers has often led some to look at them with suspicion.</p>\n<p>If you want to play a character hailing from a rich history of artisanship and tradition, but who happily picks up new practices, companions, words, and items as needed, you should play a tengu.</p>\n<h2>You Might...</h2>\n<ul>\n<li>Be gregarious and eager to find a flock of your own.</li>\n<li>Voraciously absorb the practices of those around you, sometimes even forgetting where they came from.</li>\n<li>Be willing to take on any task or job, no matter what others think.</li>\n</ul>\n<h2>Others Probably...</h2>\n<ul>\n<li>Look to you as a source of eclectic skills and knowledge, especially relating to languages.</li>\n<li>Get confused by your simultaneous respect for and disregard of tradition.</li>\n<li>Have trouble reading your expressions or regard you with suspicion and superstition.</li>\n</ul>\n<h2>Physical Description</h2>\n<p>Tengus have many avian characteristics. Their faces are tipped with sharp beaks and their scaled forearms and lower legs end in talons. As closed footwear tends to fit poorly unless custom made, many tengus wear open sandals or simply go barefoot. Tengus are rarely more than 5 feet tall, and they are even lighter than their smaller frames would suggest, as they have hollow bones. A small number of tengus have vestigial wings incapable of true flight.</p>\n<p>Tengus hatch from eggs and are featherless for their first year of life, during which they rarely leave home. They soon grow a downy gray coat, which is replaced by a dark covering of adult feathers by the time they come of age at around 15 years. Tengus use their shed feathers in a variety of tools, from simple writing quills to magical fans to focus their ancestral magic. Many tengus modify their appearance by dyeing patterns into their feathers or talons, which amplifies their body language and has the added benefit of aiding other humanoids in understanding their expressions.</p>\n<h2>Society</h2>\n<p>Tengus are extremely social, banding together in extended communities with many families living in adjacent houses and sharing the work of the household. In cities, a community may also contain members of other ancestries. Tengu children raised in the same unit consider each other siblings, usually forgetting which of them share a biological connection.</p>\n<p>The greatest divide in tengu society is between tengus remaining in their ancestral home and those who have dispersed across the world. Tengus refer to these two groups as those 'in the roost' and those 'migrating,' respectively. Roosted tengus tend to be more traditionalist and conservative and are especially concerned with preserving their culture in the face of years of erosion from oppression. Migrating tengus, on the other hand, voraciously absorb the culture of the various nations and settlements that they now call home.</p>\n<h2>Alignment and Religion</h2>\n<p>Tengus often follow the faith of the region in which they were raised, though the tengu ancestral deity is the storm god Hei Feng. This god's notorious drunken carousing and emotional swings causes many tengus to instead focus their attention on gods of freedom and travel, such as Desna or Cayden Cailean, or deities of nature, such as Gozreh. Besmara is also a common subject of tengu worship, especially among tengus who live on the sea.</p>\n<p>Before their diaspora, tengus practiced a syncretic faith that blended a polytheistic worship of the deities responsible for creating the natural world. As tengu folklore posits that tengus long ago descended from the night sky on shooting stars to rest upon Golarion's highest peaks, animist rites were practiced on mountains and other great natural features. Even today, tengus rarely differentiate between divine and primal worship.</p>\n<p>Tengus are far more concerned with the balance between traditionalism and adaptability than they are with good and evil, with lawful tengus more common among the roosted and chaotic tengus more common among the migratory.</p>\n<h2>Adventurers</h2>\n<p>A tengu that leaves the ancestral homeland feels an intense pull toward adventure, to cross vast distances, collect beautiful treasures, and brave the challenges of combat or the rolling sea.</p>\n<p>Tengu backgrounds might reflect their place in the homeland or the tengu diaspora. These could include acrobat, barkeep, charlatan, emissary, entertainer, fortune teller, gambler, merchant, nomad, or sailor, plus bandit, courier, insurgent, refugee, and scavenger.</p>\n<p>Tengus often become rogue, bard, oracles, rangers, or swashbucklers.</p>\n<h2>Names</h2>\n<p>Though roosted tengus tend toward more traditional names with the hard consonants often seen in the Tengu language, migrating tengus' tendency to readily absorb and repurpose the culture of those around them has led to names that combine elements of whatever languages suited the namer's fancy.</p>\n<h3><span style=\"text-decoration: underline;\">Sample Names</span></h3>\n<p>Arkkak, Chuko, Dolgra, Dorodara, Kakkariel, Kora, Marrak, Mossarah, Pularrka, Rarorel, Ruk, Tak-Tak, Tsukotarra</p>"
        },
        "flaws": {
            "0": {
                "value": []
            }
        },
        "hp": 6,
        "items": {
            "vo9ge": {
                "id": "qJD3PJdoSXFrZEwr",
                "img": "systems/pf2e/icons/features/ancestry/sharp-beak.webp",
                "level": "0",
                "name": "Sharp Beak",
                "pack": "pf2e.ancestryfeatures"
            }
        },
        "languages": {
            "custom": "",
            "value": [
                "common",
                "tengu"
            ]
        },
        "reach": 5,
        "rules": [],
        "size": "med",
        "source": {
            "value": "Pathfinder Advanced Player's Guide"
        },
        "speed": 25,
        "traits": {
            "custom": "",
            "rarity": {
                "value": "uncommon"
            },
            "value": [
                "humanoid",
                "tengu"
            ]
        },
        "vision": "lowLightVision"
    },
    "effects": [],
    "flags": {},
    "img": "systems/pf2e/icons/default-icons/alternatives/ancestries/tengu.svg",
    "name": "Tengu",
    "type": "ancestry"
}
