{
    "_id": "NhauZhE2kQKw8MRx",
    "data": {
        "description": {
            "value": "<p>Granted by <em>@Compendium[pf2e.spells-srd.Adaptive Ablation]{Adaptive Ablation}</em></p>"
        },
        "duration": {
            "expiry": "turn-start",
            "sustained": false,
            "unit": "minutes",
            "value": 1
        },
        "level": {
            "value": 4
        },
        "rules": [
            {
                "key": "Resistance",
                "type": "fire",
                "value": "5 + 5*floor((@item.level.value -4)/2)"
            }
        ],
        "source": {
            "value": "Pathfinder Lost Omens: Gods & Magic"
        },
        "start": {
            "initiative": null,
            "value": 0
        },
        "target": null,
        "tokenIcon": {
            "show": true
        },
        "traits": {
            "custom": "",
            "rarity": {
                "value": "common"
            },
            "value": []
        }
    },
    "effects": [],
    "flags": {},
    "img": "systems/pf2e/icons/spells/adaptive-ablation.webp",
    "name": "Spell Effect: Adaptive Ablation (Fire)",
    "type": "effect"
}
