{
    "_id": "ZEtJJ5UOlV5oTWWp",
    "data": {
        "actionCategory": {
            "value": ""
        },
        "actionType": {
            "value": "passive"
        },
        "actions": {
            "value": null
        },
        "description": {
            "value": "<p>One of your ancestors was a mortal who mastered magic. Such magical blood can remain latent for generations, but in you it manifested in full.</p>\n<p><strong>Spell List</strong> arcane</p>\n<p><strong>Bloodline Skills</strong> Arcana, Society</p>\n<p><strong>Granted Spells</strong> cantrip <em>@Compendium[pf2e.spells-srd.Detect Magic]{Detect Magic}</em>, 1st: <em>@Compendium[pf2e.spells-srd.Magic Missile]{Magic Missile}</em>, 2nd: <em>@Compendium[pf2e.spells-srd.Dispel Magic]{Dispel Magic}</em>, 3rd: <em>@Compendium[pf2e.spells-srd.Haste]{Haste}</em>, 4th: <em>@Compendium[pf2e.spells-srd.Dimension Door]{Dimension Door}</em>, 5th: <em>@Compendium[pf2e.spells-srd.Prying Eye]{Prying Eye}</em>, 6th: <em>@Compendium[pf2e.spells-srd.Disintegrate]{Disintegrate}</em>, 7th: <em>@Compendium[pf2e.spells-srd.Prismatic Spray]{Prismatic Spray}</em>, 8th: <em>@Compendium[pf2e.spells-srd.Maze]{Maze}</em>, 9th: <em>@Compendium[pf2e.spells-srd.Prismatic Sphere]{Prismatic Sphere}</em></p>\n<p><strong>Bloodline Spells</strong> initial: <em>@Compendium[pf2e.spells-srd.Ancestral Memories]{Ancestral Memories}</em>, advanced: <em>@Compendium[pf2e.spells-srd.Extend Spell]{Extend Spell}</em>, greater: <em>@Compendium[pf2e.spells-srd.Arcane Countermeasure]{Arcane Countermeasure}</em></p>\n<p><strong>Blood Magic</strong> A surge of ancestral memories grants you or one target a +1 status bonus to skill checks for 1 round.</p>\n<p>@Compendium[pf2e.feature-effects.Effect: Imperial Blood Magic]{Effect: Imperial Blood Magic}</p>"
        },
        "featType": {
            "value": "classfeature"
        },
        "level": {
            "value": 1
        },
        "location": "",
        "prerequisites": {
            "value": []
        },
        "rules": [
            {
                "key": "ActiveEffectLike",
                "mode": "upgrade",
                "path": "data.resources.focus.max",
                "priority": 10,
                "value": 1
            },
            {
                "key": "ActiveEffectLike",
                "mode": "upgrade",
                "path": "data.skills.arc.rank",
                "value": 1
            },
            {
                "key": "ActiveEffectLike",
                "mode": "upgrade",
                "path": "data.skills.soc.rank",
                "value": 1
            },
            {
                "key": "ActiveEffectLike",
                "mode": "override",
                "path": "data.proficiencies.aliases.sorcerer",
                "priority": 39,
                "value": "arcane"
            }
        ],
        "source": {
            "value": ""
        },
        "traits": {
            "custom": "",
            "rarity": {
                "value": "common"
            },
            "value": [
                "sorcerer"
            ]
        }
    },
    "effects": [],
    "flags": {},
    "img": "systems/pf2e/icons/features/classes/imperial.webp",
    "name": "Bloodline: Imperial",
    "type": "feat"
}
