{
    "_id": "76cwNLJEm4Yetnee",
    "data": {
        "actionCategory": {
            "value": ""
        },
        "actionType": {
            "value": "passive"
        },
        "actions": {
            "value": null
        },
        "description": {
            "value": "<p>You know your formulas so well that you can concoct two items at once.</p>\n<p>When using the @Compendium[pf2e.actionspf2e.Quick Alchemy]{Quick Alchemy} action, instead of spending one batch of @Compendium[pf2e.classfeatures.Infused Reagents]{Infused Reagents} to create a single item, you can spend up to two batches of infused reagents to make up to two alchemical items as described in that action. These items do not have to be the same.</p>"
        },
        "featType": {
            "value": "classfeature"
        },
        "level": {
            "value": 9
        },
        "location": "",
        "prerequisites": {
            "value": []
        },
        "rules": [],
        "source": {
            "value": ""
        },
        "traits": {
            "custom": "",
            "rarity": {
                "value": "common"
            },
            "value": [
                "alchemist"
            ]
        }
    },
    "effects": [],
    "flags": {},
    "img": "systems/pf2e/icons/features/classes/double-brew.webp",
    "name": "Double Brew",
    "type": "feat"
}
