{
    "_id": "F8oXHnu9iNTcpXbJ",
    "data": {
        "actionCategory": {
            "value": ""
        },
        "actionType": {
            "value": "passive"
        },
        "actions": {
            "value": null
        },
        "description": {
            "value": "<p>You've made additions to your innovation to upgrade your offensive capabilities. Your improvements make any Strikes that rely on your innovation deal an additional 1d6 damage, with a type determined by the boost you choose. If your innovation is armor, the boost applies to your melee unarmed Strikes and to your melee Strikes with one weapon you choose during daily preparations; if your innovation is a construct, the boost applies to your construct companion's Strikes; and if your innovation is a weapon, the boost applies to your Strikes with your innovation. You can spend downtime to switch to a different boost in the same way as switching your modification. Choose one of the following boosts, with the damage type in parentheses.</p>\n<ul>\n<li><strong>Chill (Cold):</strong> Your innovation rapidly absorbs heat, creating an intense chill.</li>\n<li><strong>Ignition (Fire):</strong> Your innovation shoots out jets of searing flame.</li>\n<li><strong>Jolt (Electricity):</strong> Your innovation jolts foes with charges of electricity.</li>\n<li><strong>Momentum (Bludgeoning):</strong> Your innovation slams into foes with added momentum.</li>\n<li><strong>Saws (Slashing):</strong> Your innovation reveals spinning sawblades during your attacks.</li>\n<li><strong>Spike (Piercing):</strong> Your innovation reveals wicked spikes during your attacks.</li>\n<li><strong>Vitriol (Acid):</strong> Your innovation releases spurts of caustic acid.</li>\n</ul>"
        },
        "featType": {
            "value": "classfeature"
        },
        "level": {
            "value": 9
        },
        "location": "",
        "prerequisites": {
            "value": []
        },
        "rules": [],
        "source": {
            "value": ""
        },
        "traits": {
            "custom": "",
            "rarity": {
                "value": "common"
            },
            "value": [
                "inventor"
            ]
        }
    },
    "effects": [],
    "flags": {},
    "img": "systems/pf2e/icons/default-icons/feat.svg",
    "name": "Offensive Boost",
    "type": "feat"
}
