{
    "_id": "3q9tBMWsWQKlXPPJ",
    "data": {
        "ability": {
            "value": ""
        },
        "area": {
            "areaType": "",
            "value": ""
        },
        "autoHeightenLevel": {
            "value": null
        },
        "category": {
            "value": "spell"
        },
        "components": {
            "focus": false,
            "material": false,
            "somatic": true,
            "verbal": true
        },
        "cost": {
            "value": ""
        },
        "damage": {
            "applyMod": false,
            "value": {}
        },
        "description": {
            "value": "<p>Three faintly glowing wisps of fire float around your head. Each time you hit a creature with a Strike, one of the wisps goes hurtling towards that creature, dealing 1d4 fire damage. If you Cast a Spell with the fire trait while you have fewer than three wisps, a new wisp appears.</p>\n<p>@Compendium[pf2e.spell-effects.Spell Effect: Flame Wisp]{Spell Effect: Flame Wisp}</p>\n<hr />\n<p><strong>Heightened (+2)</strong> The damage increases by 1d4.</p>"
        },
        "duration": {
            "value": "1 minute"
        },
        "hasCounteractCheck": {
            "value": false
        },
        "level": {
            "value": 2
        },
        "location": {
            "value": ""
        },
        "materials": {
            "value": ""
        },
        "range": {
            "value": ""
        },
        "rules": [],
        "save": {
            "basic": "",
            "value": ""
        },
        "scaling": {
            "damage": {
                "0": "1d4"
            },
            "interval": 2
        },
        "school": {
            "value": "evocation"
        },
        "source": {
            "value": "Pathfinder Secrets of Magic"
        },
        "spellType": {
            "value": "utility"
        },
        "sustained": {
            "value": false
        },
        "target": {
            "value": ""
        },
        "time": {
            "value": "2"
        },
        "traditions": {
            "custom": "",
            "value": [
                "arcane",
                "primal"
            ]
        },
        "traits": {
            "custom": "",
            "rarity": {
                "value": "common"
            },
            "value": [
                "fire"
            ]
        }
    },
    "effects": [],
    "flags": {},
    "img": "systems/pf2e/icons/spells/flame-wisp.webp",
    "name": "Flame Wisp",
    "type": "spell"
}
