{
    "_id": "Shiuhdb2nO6Qgk3k",
    "data": {
        "ability": {
            "value": ""
        },
        "area": {
            "areaType": "burst",
            "value": "60"
        },
        "autoHeightenLevel": {
            "value": null
        },
        "category": {
            "value": "spell"
        },
        "components": {
            "focus": false,
            "material": false,
            "somatic": true,
            "verbal": true
        },
        "cost": {
            "value": ""
        },
        "damage": {
            "value": {
                "8if8c4kjctnupcu8": {
                    "applyMod": false,
                    "type": {
                        "categories": [],
                        "subtype": "",
                        "value": "cold"
                    },
                    "value": "8d10"
                }
            }
        },
        "description": {
            "value": "<p>A powerful globe of chilling moonlight explodes in the area, dealing 8d10 cold damage to creatures and objects in the area, plus [[/r {8d10}[positive]]]{8d10 additional positive damage} to undead creatures.</p>\n<p>Moonburst's cold damage is silver damage for the purposes of weaknesses, resistances, and the like. Each creature and object in the area must attempt a Reflex save.</p>\n<hr />\n<p><strong>Critical Success</strong> The creature or object is unaffected.</p>\n<p><strong>Success</strong> The creature or object takes half damage.</p>\n<p><strong>Failure</strong> The creature or object takes full damage.</p>\n<p><strong>Critical Failure</strong> The creature or object takes full damage. If it's a creature, it's @Compendium[pf2e.conditionitems.Blinded]{Blinded} for an unlimited duration. If the globe overlaps with an area of magical darkness, moonburst attempts to counteract the darkness effect.</p>\n<hr />\n<p><strong>Heightened (+1)</strong> The cold damage increases by 1d10, and the positive damage against undead increases by [[/r 1d10[positive]]]{1d10 positive damage}.</p>"
        },
        "duration": {
            "value": ""
        },
        "hasCounteractCheck": {
            "value": false
        },
        "level": {
            "value": 7
        },
        "location": {
            "value": ""
        },
        "materials": {
            "value": ""
        },
        "range": {
            "value": "500 feet"
        },
        "rules": [],
        "save": {
            "basic": "",
            "value": "reflex"
        },
        "school": {
            "value": "evocation"
        },
        "source": {
            "value": "Pathfinder #172: Secrets of the Temple-City"
        },
        "spellType": {
            "value": "save"
        },
        "sustained": {
            "value": false
        },
        "target": {
            "value": ""
        },
        "time": {
            "value": "2"
        },
        "traditions": {
            "custom": "",
            "value": [
                "divine",
                "primal"
            ]
        },
        "traits": {
            "custom": "",
            "rarity": {
                "value": "uncommon"
            },
            "value": [
                "cold",
                "light",
                "positive"
            ]
        }
    },
    "effects": [],
    "flags": {},
    "img": "systems/pf2e/icons/default-icons/spell.svg",
    "name": "Moonburst",
    "type": "spell"
}
