{
    "_id": "HpqQ5VQ0w4HqYgVC",
    "data": {
        "actionCategory": {
            "value": ""
        },
        "actionType": {
            "value": "passive"
        },
        "actions": {
            "value": null
        },
        "description": {
            "value": "<p>You're descended from jungle stalkers and can move swiftly through scrub and underbrush. You ignore difficult terrain from undergrowth, and greater difficult terrain from undergrowth is only difficult terrain for you.</p>"
        },
        "featType": {
            "value": "heritage"
        },
        "level": {
            "value": 1
        },
        "location": "",
        "prerequisites": {
            "value": []
        },
        "rules": [],
        "source": {
            "value": ""
        },
        "traits": {
            "custom": "",
            "rarity": {
                "value": "common"
            },
            "value": [
                "catfolk"
            ]
        }
    },
    "effects": [],
    "flags": {},
    "img": "systems/pf2e/icons/features/ancestry/jungle-catfolk.webp",
    "name": "Jungle Catfolk",
    "type": "feat"
}
