{
    "_id": "oOB1uKvoBMGj7ykZ",
    "data": {
        "actionCategory": {
            "value": ""
        },
        "actionType": {
            "value": "passive"
        },
        "actions": {
            "value": null
        },
        "description": {
            "value": "<p><strong>[Downtime]</strong></p>\n<p><strong>Prerequisites:</strong> Tier 2 with the Vigilant Seal</p>\n<p><strong>Cost</strong>: 2 Fame</p>\n<p><strong>Effect</strong>: You have been entrusted with an accursed item from the Society's vaults, and you can spend your time in the Grand Lodge patiently unraveling its malign influence. When you acquire this boon choose a permanent magic item of your level or lower to which you have access. While you have this boon slotted, you can spend Downtime erasing the item's stubborn curse. This uses the same rules as you would to Craft the item, with the following exceptions. First, you must use Arcana, Nature, Occultism, or Religion in place of Crafting (such as to determine the progress you make and the maximum item level you can work on). Second, your faction provides you the necessary tools and workspace to perform this operation. Third, you only need to spend 2 days of Downtime before attempting your first skill check and subsequently beginning to reduce the item's effective cost. You must keep this boon slotted until you finish uncursing the item.</p>\n<p><strong>Special</strong>: You can purchase this boon multiple times. Each time you do so, you select a different item.</p>"
        },
        "featType": {
            "value": "pfsboon"
        },
        "level": {
            "value": 0
        },
        "prerequisites": {
            "value": []
        },
        "rules": [],
        "source": {
            "value": ""
        },
        "traits": {
            "custom": "",
            "rarity": {
                "value": "common"
            },
            "selected": {},
            "value": []
        }
    },
    "effects": [],
    "flags": {},
    "img": "systems/pf2e/icons/default-icons/mystery-man.webp",
    "name": "Curse Breaker",
    "type": "feat"
}
