{
    "_id": "HQBA9Yx2s8ycvz3C",
    "data": {
        "abilityBoostLevels": {
            "value": [
                5,
                10,
                15,
                20
            ]
        },
        "ancestryFeatLevels": {
            "value": [
                1,
                5,
                9,
                13,
                17
            ]
        },
        "attacks": {
            "advanced": 0,
            "martial": 1,
            "other": {
                "name": "",
                "rank": 0
            },
            "simple": 1,
            "unarmed": 1
        },
        "classDC": 0,
        "classFeatLevels": {
            "value": [
                2,
                4,
                6,
                8,
                10,
                12,
                14,
                16,
                18,
                20
            ]
        },
        "defenses": {
            "heavy": 0,
            "light": 1,
            "medium": 1,
            "unarmored": 1
        },
        "description": {
            "value": "<p><em>Combining the physicality and technique of a warrior with the ability to cast arcane magic, you seek to perfect the art of fusing spell and strike. While the hefty tome you carry reflects hours conducting arcane research, your enemies need no reminder of your training. They recognize it as you take them down.</em></p>\n<p><strong>Key Ability: STRENGTH OR DEXTERITY</strong></p>\n<p>At 1st level, your class gives you an ability boost to your choice of Strength or Dexterity.</p>\n<p><strong>Hit Points: 8 plus your Constitution modifier</strong></p>\n<p>You increase your maximum number of HP by this number at 1st level and every level thereafter.</p>\n<h1>Roleplaying the Magus</h1>\n<h2>During Combat Encounters...</h2>\n<p>You channel spells through your weapon or body to hit enemies with a powerful attack and spell combination. Because your spells per day are limited, you often rely on trusty, carefully chosen cantrips and focus spells. When necessary, you know how to win a fight without magic.</p>\n<h2>During Social Encounters...</h2>\n<p>Your education and breadth of experience make you knowledgeable about many subjects. You can contribute information related to your scholarly pursuits, especially about magic.</p>\n<h2>While Exploring...</h2>\n<p>Your flexibility means you might look for magical auras, remain on guard, or even sneak around. Your ability to fill different niches means that your role often depends on the talents of the other members of your group.</p>\n<h2>In Downtime...</h2>\n<p>You split your time between magical pursuits, like researching spells and crafting items, and martial practice, such as retraining combat abilities to learn new techniques.</p>\n<h2>You Might...</h2>\n<ul>\n<li>Continually refine your spell and item selections to suit your personal style, or prepare battle plans and spell lists for a variety of situations.</li>\n<li>Socialize with scholars of magic and veteran combatants alike, seeking out masters to teach you new techniques.</li>\n<li>Overreach with ambitious plans that pull you in too many directions at once.</li>\n</ul>\n<h2>Others Probably...</h2>\n<ul>\n<li>Wonder how you can keep on top of two disparate disciplines at the same time.</li>\n<li>Believe you have a broad enough skill set to take care of yourself in most situations.</li>\n</ul>\n<h1>Initial Proficiencies</h1>\n<p>At 1st level, you gain the listed proficiency ranks in the following statistics. You are untrained in anything not listed unless you gain a better proficiency rank in some other way.</p>\n<h2>Perception</h2>\n<p>Trained in Perception</p>\n<h2>Saving Throws</h2>\n<p>Expert in Fortitude</p>\n<p>Trained in Reflex</p>\n<p>Expert in Will</p>\n<h2>Skills</h2>\n<p>Trained in Arcana</p>\n<p>Trained in a number of additional skills equal to 2 plus your Intelligence modifier</p>\n<h2>Attacks</h2>\n<p>Trained in simple weapons</p>\n<p>Trained in martial weapons</p>\n<p>Trained in unarmed attacks</p>\n<h2>Defenses</h2>\n<p>Trained in light armor</p>\n<p>Trained in medium armor</p>\n<p>Trained in unarmored defense</p>\n<h2>Spells</h2>\n<p>Trained in arcane spell attacks</p>\n<p>Trained in arcane spell DCs</p>\n<h1>Class Features</h1>\n<p>You gain these features as a Magus. Abilities gained at higher levels list the levels at which you gain them next to the features' names.</p>\n<table class=\"pf2-table\">\n<thead>\n<tr>\n<th>Your Level</th>\n<th>Class Features</th>\n</tr>\n</thead>\n<tbody>\n<tr>\n<td>1</td>\n<td>Ancestry and background, initial proficiencies, arcane spellcasting, arcane cascade, conflux spells, hybrid study, spellstrike</td>\n</tr>\n<tr>\n<td>2</td>\n<td>Magus feat, skill feat</td>\n</tr>\n<tr>\n<td>3</td>\n<td>2nd-level spells, general feat, skill increase</td>\n</tr>\n<tr>\n<td>4</td>\n<td>Magus feat, skill feat</td>\n</tr>\n<tr>\n<td>5</td>\n<td>3rd-level spells, ability boosts, ancestry feat, lightning reflexes, skill increase, weapon expertise</td>\n</tr>\n<tr>\n<td>6</td>\n<td>Magus feat, skill feat</td>\n</tr>\n<tr>\n<td>7</td>\n<td>4th-level spells, general feat, skill increase, studious spells, weapon specialization</td>\n</tr>\n<tr>\n<td>8</td>\n<td>Magus feat, skill feat</td>\n</tr>\n<tr>\n<td>9</td>\n<td>5th-level spells, alertness, ancestry feat, expert spellcaster, resolve, skill increase</td>\n</tr>\n<tr>\n<td>10</td>\n<td>Ability boosts, Magus feat, skill feat</td>\n</tr>\n<tr>\n<td>11</td>\n<td>6th-level spells, general feat, medium armor expertise, skill increase</td>\n</tr>\n<tr>\n<td>12</td>\n<td>Magus feat, skill feat</td>\n</tr>\n<tr>\n<td>13</td>\n<td>7th-level spells, ancestry feat, skill increase, weapon mastery</td>\n</tr>\n<tr>\n<td>14</td>\n<td>Magus feat, skill feat</td>\n</tr>\n<tr>\n<td>15</td>\n<td>8th-level spells, ability boosts, general feat, greater weapon specialization, juggernaut, skill increase</td>\n</tr>\n<tr>\n<td>16</td>\n<td>Magus feat, skill feat</td>\n</tr>\n<tr>\n<td>17</td>\n<td>9th-level spells, ancestry feat, master spellcaster, medium armor mastery, skill increase</td>\n</tr>\n<tr>\n<td>18</td>\n<td>Magus feat, skill feat</td>\n</tr>\n<tr>\n<td>19</td>\n<td>Double spellstrike, general feat, skill increase</td>\n</tr>\n<tr>\n<td>20</td>\n<td>Ability boosts, Magus feat, skill feat</td>\n</tr>\n</tbody>\n</table>\n<h2>Ancestry and Background</h2>\n<p>In addition to the abilities provided by your class at 1st level, you have the benefits of your selected ancestry and background.</p>\n<h2>Arcane Spellcasting</h2>\n<p>You study spells so you can combine them with your attacks or solve problems that strength of arms alone can't handle. You can cast arcane spells using the Cast a Spell activity, and you can supply material, somatic, and verbal components when casting spells. Because you're a magus, you can draw replacement sigils with the tip of your weapon or your free hand for spells requiring material components, replacing them with somatic components instead of needing a material component pouch. At 1st level, you can prepare one 1st-level spell and five cantrips each morning from the spells in your spellbook (see below). Prepared spells remain available to you until you cast them or until you prepare your spells again. The number of spells you can prepare is called your spell slots. As you increase in level as a magus, your number of spell slots and the highest level of spells you can cast from spell slots increase, shown in Table 2-2: Magus Spells per Day. Because you split your focus between physical training and magical scholarship, you have no more than two spell slots of your highest level and, if you can cast 2nd-level spells or higher, two spell slots of 1 level lower than your highest spell level. Some of your spells require you to attempt a spell attack roll to see how effective they are, or have your enemies roll against your spell DC (typically by attempting a saving throw). Your spell attack rolls and spell DCs use your Intelligence modifier.</p>\n<h3>Heightening Spells</h3>\n<p>When you get spell slots of 2nd level and higher, you can fill those slots with stronger versions of lower-level spells. This increases the spell's level, heightening it to match the spell slot. Many spells have specific improvements when they're heightened to certain levels.</p>\n<h3>Cantrips</h3>\n<p>A cantrip is a special type of spell that doesn't use spell slots. You can cast a cantrip at will, any number of times per day. A cantrip is always automatically heightened to half your level rounded up-this is usually equal to the highest level of spell you can cast as a magus. For example, as a 1st-level magus, your cantrips are 1st-level spells, and as a 5th-level magus, your cantrips are 3rd-level spells.</p>\n<h3>Spellbook</h3>\n<p>Every arcane spell has a written version, usually recorded in a spellbook. You start with a spellbook worth 10 sp or less, which you receive for free and must study to prepare your spells each day. The spellbook contains your choice of eight arcane cantrips and four 1st-level arcane spells. You choose these from the common spells on the arcane spell list or from other arcane spells you gain access to. Your spellbook's form and name are up to you. It might be anything from a sturdy book with a secure latch entitled Theses on the Stratagems of Supernatural Warfare to a tattered collection of training pamphlets with your name scrawled on the cover.</p>\n<p>Each time you gain a level, you add two more arcane spells to your spellbook, of any level of spell you can cast. You can also use the Arcana skill to add other spells that you find in your adventures. Though you lose some lower spell slots as you increase in level, you keep the spells in your spellbook and can prepare them in your higher-level slots as normal.</p>\n<p>If you have a spellbook from multiple sources (such as being a magus with the Wizard Dedication feat), you can use the same spellbook for all your spells.</p>\n<table class=\"pf2-table\">\n<thead>\n<tr>\n<th>Your Level</th>\n<th>Cantrips</th>\n<th>1st</th>\n<th>2nd</th>\n<th>3rd</th>\n<th>4th</th>\n<th>5th</th>\n<th>6th</th>\n<th>7th</th>\n<th>8th</th>\n<th>9th</th>\n<th>10th</th>\n</tr>\n</thead>\n<tbody>\n<tr>\n<td>1</td>\n<td>5</td>\n<td>1</td>\n<td>-</td>\n<td>-</td>\n<td>-</td>\n<td>-</td>\n<td>-</td>\n<td>-</td>\n<td>-</td>\n<td>-</td>\n<td>-</td>\n</tr>\n<tr>\n<td>2</td>\n<td>5</td>\n<td>2</td>\n<td>-</td>\n<td>-</td>\n<td>-</td>\n<td>-</td>\n<td>-</td>\n<td>-</td>\n<td>-</td>\n<td>-</td>\n<td>-</td>\n</tr>\n<tr>\n<td>3</td>\n<td>5</td>\n<td>2</td>\n<td>1</td>\n<td>-</td>\n<td>-</td>\n<td>-</td>\n<td>-</td>\n<td>-</td>\n<td>-</td>\n<td>-</td>\n<td>-</td>\n</tr>\n<tr>\n<td>4</td>\n<td>5</td>\n<td>2</td>\n<td>2</td>\n<td>-</td>\n<td>-</td>\n<td>-</td>\n<td>-</td>\n<td>-</td>\n<td>-</td>\n<td>-</td>\n<td>-</td>\n</tr>\n<tr>\n<td>5</td>\n<td>5</td>\n<td>-</td>\n<td>2</td>\n<td>2</td>\n<td>-</td>\n<td>-</td>\n<td>-</td>\n<td>-</td>\n<td>-</td>\n<td>-</td>\n<td>-</td>\n</tr>\n<tr>\n<td>6</td>\n<td>5</td>\n<td>-</td>\n<td>2</td>\n<td>2</td>\n<td>-</td>\n<td>-</td>\n<td>-</td>\n<td>-</td>\n<td>-</td>\n<td>-</td>\n<td>-</td>\n</tr>\n<tr>\n<td>7</td>\n<td>5</td>\n<td>-</td>\n<td>-*</td>\n<td>2</td>\n<td>2</td>\n<td>-</td>\n<td>-</td>\n<td>-</td>\n<td>-</td>\n<td>-</td>\n<td>-</td>\n</tr>\n<tr>\n<td>8</td>\n<td>5</td>\n<td>-</td>\n<td>-*</td>\n<td>2</td>\n<td>2</td>\n<td>-</td>\n<td>-</td>\n<td>-</td>\n<td>-</td>\n<td>-</td>\n<td>-</td>\n</tr>\n<tr>\n<td>9</td>\n<td>5</td>\n<td>-</td>\n<td>-*</td>\n<td>-</td>\n<td>2</td>\n<td>2</td>\n<td>-</td>\n<td>-</td>\n<td>-</td>\n<td>-</td>\n<td>-</td>\n</tr>\n<tr>\n<td>10</td>\n<td>5</td>\n<td>-</td>\n<td>-*</td>\n<td>-</td>\n<td>2</td>\n<td>2</td>\n<td>-</td>\n<td>-</td>\n<td>-</td>\n<td>-</td>\n<td>-</td>\n</tr>\n<tr>\n<td>11</td>\n<td>5</td>\n<td>-</td>\n<td>-</td>\n<td>-*</td>\n<td>-</td>\n<td>2</td>\n<td>2</td>\n<td>-</td>\n<td>-</td>\n<td>-</td>\n<td>-</td>\n</tr>\n<tr>\n<td>12</td>\n<td>5</td>\n<td>-</td>\n<td>-</td>\n<td>-*</td>\n<td>-</td>\n<td>2</td>\n<td>2</td>\n<td>-</td>\n<td>-</td>\n<td>-</td>\n<td>-</td>\n</tr>\n<tr>\n<td>13</td>\n<td>5</td>\n<td>-</td>\n<td>-</td>\n<td>-</td>\n<td>-*</td>\n<td>-</td>\n<td>2</td>\n<td>2</td>\n<td>-</td>\n<td>-</td>\n<td>-</td>\n</tr>\n<tr>\n<td>14</td>\n<td>5</td>\n<td>-</td>\n<td>-</td>\n<td>-</td>\n<td>-*</td>\n<td>-</td>\n<td>2</td>\n<td>2</td>\n<td>-</td>\n<td>-</td>\n<td>-</td>\n</tr>\n<tr>\n<td>15</td>\n<td>5</td>\n<td>-</td>\n<td>-</td>\n<td>-</td>\n<td>-*</td>\n<td>-</td>\n<td>-</td>\n<td>2</td>\n<td>2</td>\n<td>-</td>\n<td>-</td>\n</tr>\n<tr>\n<td>16</td>\n<td>5</td>\n<td>-</td>\n<td>-</td>\n<td>-</td>\n<td>-*</td>\n<td>-</td>\n<td>-</td>\n<td>2</td>\n<td>2</td>\n<td>-</td>\n<td>-</td>\n</tr>\n<tr>\n<td>17</td>\n<td>5</td>\n<td>-</td>\n<td>-</td>\n<td>-</td>\n<td>-*</td>\n<td>-</td>\n<td>-</td>\n<td>-</td>\n<td>2</td>\n<td>2</td>\n<td>-</td>\n</tr>\n<tr>\n<td>18</td>\n<td>5</td>\n<td>-</td>\n<td>-</td>\n<td>-</td>\n<td>-*</td>\n<td>-</td>\n<td>-</td>\n<td>-</td>\n<td>2</td>\n<td>2</td>\n<td>-</td>\n</tr>\n<tr>\n<td>19</td>\n<td>5</td>\n<td>-</td>\n<td>-</td>\n<td>-</td>\n<td>-*</td>\n<td>-</td>\n<td>-</td>\n<td>-</td>\n<td>2</td>\n<td>2</td>\n<td>-</td>\n</tr>\n<tr>\n<td>20</td>\n<td>5</td>\n<td>-</td>\n<td>-</td>\n<td>-</td>\n<td>-*</td>\n<td>-</td>\n<td>-</td>\n<td>-</td>\n<td>2</td>\n<td>2</td>\n<td>-</td>\n</tr>\n<tr>\n<td style=\"color: white; width: 120px; background-color: #522e2c; text-align: center; height: 25px;\" colspan=\"12\">* The studious spells class feature gives you extra slots of this level for specific spells.</td>\n</tr>\n</tbody>\n</table>\n<h2>Spellstrike</h2>\n<p>You've learned the fundamental magus technique that lets you combine magical and physical attacks together. You gain the Spellstrike activity.</p>\n<h3>Spellstrike Specifics</h3>\n<p>Though the base Spellstrike rules cover most spells, various modifications apply to more complicated spells when loaded into your fist, blade, or other attack.</p>\n<p><strong>One Target:</strong> The spell targets only the target of your Strike, even if it normally allows more targets. Some feats let you affect more creatures.</p>\n<p><strong>Reach:</strong> The coupled spell affects the target using the reach of the weapon or unarmed attack you make your Spellstrike with. For instance, shocking grasp would affect a creature beyond the reach of your hand if you used a weapon with reach, and ray of frost would affect only a creature in your weapon's reach, even though the spell's range is longer.</p>\n<p><strong>Ancillary Effects</strong>: Your spell still has any non-targeted effects that might affect creatures other than the target, as well as any ongoing effects starting from the moment you hit with the Strike. For example, acid splash would still deal its splash damage to creatures other than the target and tanglefoot's circumstance penalty would last for its normal duration. The spell takes effect after the Strike deals damage; if the Strike has other special effects, the GM determines whether they happen before or after the spell.</p>\n<p><strong>Multiple Defenses:</strong> Any additional rolls after the initial spell attack still happen normally, such as the Fortitude save attempted by the target of a disintegrate spell. Similarly, a spell that allows you to attack with it again on subsequent rounds would only combine a Strike with its initial attack roll, not with any later ones.</p>\n<p><strong>Invalid or Immune Target:</strong> If the target you hit wouldn't be a valid target for the spell, the spell is still expended but doesn't affect the target. If the target is immune to your attack but not the spell, it can still be affected by the spell.</p>\n<p><strong>Variable Actions:</strong> Some spells have different effects based on the number of actions you spend to cast them. You choose whether to use the effects of the 1- or 2-action version of the spell when you use Spellstrike. A spell has to take exactly 1 or 2 actions; you can't use Spellstrike with a spell that takes a free action, reaction, or 3 or more actions.</p>\n<p><strong>Metamagic:</strong> You typically can't use metamagic with Spellstrike because metamagic requires the next action you take to be Cast a Spell, and Spellstrike is a combined activity that doesn't qualify.</p>\n<h2>Arcane Cascade</h2>\n<p>After you wield magic, you can enter a special stance to make your attacks more effective.</p>\n<h2>Hybrid Study</h2>\n<p>Your extensive physical training and carefully chosen magic combine to form a unique and dangerous fighting style that's more than the sum of its parts. You choose one field of hybrid study to represent your particular combination of skills. Your hybrid study gives you a special ability, usually tied to Spellstrike or Arcane Cascade, and it determines your initial conflux spell. The hybrid studies presented in this book are as follows.</p>\n<h3>Inexorable Iron</h3>\n<p>Once you begin along a path, nothing can stop you from reaching its end. You transform the mass of a greataxe, greatsword, or polearm into an unstoppable force to augment your own striking power or keep you standing on the battlefield. When you enter Arcane Cascade stance and at the start of each of your turns while you're in that stance, if you're wielding a melee weapon in two hands, you gain temporary Hit Points equal to half your level (minimum 1 temporary HP).</p>\n<p><strong>Conflux Spell</strong> thunderous strike</p>\n<h3>Laughing Shadow</h3>\n<p>Magic is freeing, a means to your ends, and you can use it to go where you want, do as you please, and avoid the consequences. You are a laughing shadow of spell and blade, always one step ahead of your foes, always with a trick up your sleeve.</p>\n<p>While in Arcane Cascade stance, you gain a +5-foot status bonus to your Speeds, or a +10-foot bonus if you're unarmored. If you have a free hand while in the stance and are attacking a @Compendium[pf2e.conditionitems.Flat-Footed]{Flat-Footed} creature, you increase the extra damage to 3, to 5 if you have weapon specialization, or to 7 if you have greater weapon specialization. You must have your other hand completely free; the extra damage doesn't apply if you have a free-hand weapon or other item in that hand, even if you would normally be able to use the hand for other things.</p>\n<p><strong>Conflux Spell</strong> dimensional assault</p>\n<h3>Sparkling Targe</h3>\n<p>You've studied the applications of magic, training yourself to perform not just offensive maneuvers but defensive tactics as well. When magic flows through you, your shield can block impossible things, even a dragon's breath or a magic missile.</p>\n<p>You gain the Shield Block general feat.</p>\n<p>When you're in Arcane Cascade stance with your shield raised, your circumstance bonus to AC from your shield also applies to your saves against spells and other magical effects. In addition, damage you take as a result of a spell or magical effect while you're in Arcane Cascade can trigger your Shield Block reaction, even if the damage isn't physical. When blocking damage in this way, increase your shield's Hardness by an amount equal to the extra damage from Arcane Cascade (typically 1, but 2 if you have weapon specialization, or 3 if you have greater weapon specialization). These benefits apply whether you're using an actual shield, the shield spell, or something else that works like a shield (such as a raised tome if you have the Raise a Tome feat).</p>\n<p><strong>Conflux Spell</strong> shielding strike</p>\n<h3>Starlit Span</h3>\n<p>With magic, the sky's the limit, and you can't be bound by the confines of physical proximity. Your power reaches as far as your senses can perceive, transcending the space between you and your target even with spells that normally require direct physical contact.</p>\n<p>When you use Spellstrike, you can make a ranged weapon or ranged unarmed Strike, as long as the target is within the first range increment of your ranged weapon or ranged unarmed attack. You can deliver the spell even if its range is shorter than the range increment of your ranged attack.</p>\n<p><strong>Conflux Spell</strong> shooting star</p>\n<h3>Twisting Tree</h3>\n<p>The staff is perhaps one of the simplest of weapons, but this simplicity belies its elegance and versatility. To you, a staff is casting implement and martial weapon alike-the foundation of a fighting style.</p>\n<p>While you wield a staff in one hand, the staff adjusts in shape and weight, gaining the agile trait and increasing its damage die size to 1d6. While you wield a staff in both hands, it lengthens, twists, and reshapes, gaining the parry, reach, and trip traits. While you're in Arcane Cascade stance, you can Interact or Release to change your grip on the weapon as a free action when you Strike with your staff, including Strikes made in a Spellstrike. This happens before you roll your attack roll. You can also Interact to change your grip on the staff as a free action triggered at the end of your turn.</p>\n<p><strong>Conflux Spell</strong> spinning staff</p>\n<h2>Conflux Spells</h2>\n<p>You learn a conflux spell from your hybrid study, and you can cast additional conflux spells by selecting certain feats. Conflux spells are magus-specific spells created for combat and are a type of focus spell. It costs 1 Focus Point to cast a focus spell, and you start with a focus pool of 1 Focus Point. You refill your focus pool during your daily preparations, and you can regain 1 Focus Point by spending 10 minutes using the Refocus activity to both study your spellbook and perform a physical regimen.</p>\n<p>Focus spells are automatically heightened to half your level rounded up. Focus spells don't require spell slots, nor can you cast them using spell slots. Taking feats can give you more focus spells and increase the size of your focus pool, though your focus pool can never hold more than 3 points.</p>\n<h2>Magus Feats<span style=\"float: right;\">Level 2</span></h2>\n<p>At 2nd level and every even-numbered level thereafter, you gain a magus class feat.</p>\n<h2>Skill Feats<span style=\"float: right;\">Level 2</span></h2>\n<p>At 2nd level and every 2 levels thereafter, you gain a skill feat. You must be trained or better in the corresponding skill to select a skill feat.</p>\n<h2>General Feats<span style=\"float: right;\">Level 3</span></h2>\n<p>At 3rd level and every 4 levels thereafter, you gain a general feat.</p>\n<h2>Skill Increases<span style=\"float: right;\">Level 3</span></h2>\n<p>At 3rd level and every 2 levels thereafter, you gain a skill increase. You can use this increase either to increase your proficiency rank to trained in one skill you're untrained in, or to increase your proficiency rank in one skill in which you're already trained to expert.</p>\n<p>At 7th level, you can use skill increases to increase your proficiency rank to master in a skill in which you're already an expert, and at 15th level, you can use them to increase your proficiency rank to legendary in a skill in which you're already a master.</p>\n<h2>Ability Boosts<span style=\"float: right;\">Level 5</span></h2>\n<p>At 5th level and every 5 levels thereafter, boost four different ability scores. You can use these boosts to increase ability scores above 18. Boosting an ability score increases it by 1 if it's already 18 or above, or by 2 if it starts out below 18.</p>\n<h2>Ancestry Feats<span style=\"float: right;\">Level 5</span></h2>\n<p>In addition to the ancestry feat you started with, you gain an ancestry feat at 5th level and every 4 levels thereafter.</p>\n<h2>Lightning Reflexes<span style=\"float: right;\">Level 5</span></h2>\n<p>Your reflexes are lightning fast. Your proficiency rank for Reflex saves increases to expert.</p>\n<h2>Weapon Expertise<span style=\"float: right;\">Level 5</span></h2>\n<p>You've dedicated yourself to learning the intricacies of your weapons. Your proficiency ranks for simple weapons, martial weapons, and unarmed attacks increase to expert.</p>\n<h2>Studious Spells<span style=\"float: right;\">Level 7</span></h2>\n<p>Your hybrid study grants you additional spells that can enhance your power in combat. You gain two special 2nd-level studious spell slots, which can be used to prepare spider climb, true strike, water breathing, and an additional spell depending on your hybrid study. You add any spells from this class feature to your spellbook. At 11th level, the extra slots increase to 3rd level and you add haste and an additional spell depending on your hybrid study. At 13th level, the extra slots increase to 4th level and you add fly and an additional spell depending on your hybrid study.</p>\n<p><strong>Laughing Shadow</strong> 7th: mirror image; 11th: shift blame; 13th: dimension door</p>\n<p><strong>Sparkling Targe</strong> 7th: resist energy; 11th: warding aggression; 13th: stoneskin</p>\n<p><strong>Starlit Span</strong> 7th: darkvision; 11th: wall of wind; 13th: freedom of movement</p>\n<p><strong>Inexorable Iron</strong> 7th: enlarge; 11th: earthbind; 13th: dimensional anchor</p>\n<p><strong>Twisting Tree</strong> 7th: magic mouth; 11th: slow; 13th: blink</p>\n<h2>Weapon Specialization<span style=\"float: right;\">Level 7</span></h2>\n<p>You can inflict greater injuries with your favored weapons. You deal 2 additional damage with weapons and unarmed attacks in which you're an expert. This damage increases to 3 if you're a master, and 4 if you're legendary.</p>\n<h2>Alertness<span style=\"float: right;\">Level 9</span></h2>\n<p>You remain alert to threats around you. Your proficiency rank for Perception increases to expert.</p>\n<h2>Expert Spellcaster<span style=\"float: right;\">Level 9</span></h2>\n<p>Your fundamental understanding of magic improves, making your spells harder to resist. Your proficiency ranks for arcane spell attack rolls and spell DCs increase to expert.</p>\n<h2>Resolve<span style=\"float: right;\">Level 9</span></h2>\n<p>You've steeled your mind with resolve. Your proficiency rank for Will saves increases to master. When you roll a success on a Will save, you get a critical success instead.</p>\n<h2>Medium Armor Expertise<span style=\"float: right;\">Level 13</span></h2>\n<p>You've learned to defend yourself better against incoming attacks. Your proficiency ranks for light armor, medium armor, and unarmored defense increase to expert.</p>\n<h2>Weapon Mastery<span style=\"float: right;\">Level 11</span></h2>\n<p>You fully understand your weapons. Your proficiency ranks for simple weapons, martial weapons, and unarmed attacks increase to master.</p>\n<h2>Greater Weapon Specialization<span style=\"float: right;\">Level 15</span></h2>\n<p>Your damage from weapon specialization increases to 4 with weapons and unarmed attacks in which you're an expert, 6 if you're a master, and 8 if you're legendary.</p>\n<h2>Juggernaut<span style=\"float: right;\">Level 15</span></h2>\n<p>Your body is accustomed to physical hardship and resistant to a wide range of ailments. Your proficiency rank for Fortitude saves increases to master. When you roll a success on a Fortitude save, you get a critical success instead.</p>\n<h2>Master Spellcaster<span style=\"float: right;\">Level 17</span></h2>\n<p>You fortify your spells with masterful prowess. Your proficiency ranks for arcane spell attack rolls and spell DCs increase to master.</p>\n<h2>Medium Armor Mastery<span style=\"float: right;\">Level 17</span></h2>\n<p>Your skill with light and medium armor improves, increasing your ability to avoid blows. Your proficiency ranks for light and medium armor, as well as for unarmed defense, increase to master.</p>\n<h2>Double Spellstrike<span style=\"float: right;\">Level 19</span></h2>\n<p>You can extend the magic of spells you store with Spellstrike. After you make a Spellstrike with a spell cast from a spell slot, you retain an echo of the spell, stored in your body. The next time you Spellstrike, you can cast the same spell again without expending a spell slot.</p>\n<p>If you choose to cast a different spell with Spellstrike, or you go 1 minute without using the stored spell, the stored spell dissipates harmlessly.</p>"
        },
        "generalFeatLevels": {
            "value": [
                3,
                7,
                11,
                15,
                19
            ]
        },
        "hp": 8,
        "items": {
            "31b86": {
                "id": "9XLUh9iMepZesdmc",
                "img": "systems/pf2e/icons/features/classes/weapon-expertise.webp",
                "level": 5,
                "name": "Weapon Expertise (Level 5)",
                "pack": "pf2e.classfeatures"
            },
            "5q48r": {
                "id": "wXaz41gwqNtTn6tf",
                "img": "systems/pf2e/icons/features/classes/archwizards-spellcraft.webp",
                "level": 1,
                "name": "Arcane Spellcasting (Magus)",
                "pack": "pf2e.classfeatures"
            },
            "8jtpc": {
                "id": "rz87RgR1crWTd7j5",
                "img": "systems/pf2e/icons/features/classes/lightning-reflexes.webp",
                "level": 5,
                "name": "Lightning Reflexes (Level 5)",
                "pack": "pf2e.classfeatures"
            },
            "bq0rq": {
                "id": "FkbFgmoVz5lHhSMo",
                "img": "systems/pf2e/icons/default-icons/feat.svg",
                "level": 1,
                "name": "Conflux Spells",
                "pack": "pf2e.classfeatures"
            },
            "e0xpi": {
                "id": "mdzk070ixIDpid7V",
                "img": "systems/pf2e/icons/features/classes/expert-spellcaster.webp",
                "level": 9,
                "name": "Expert Spellcaster (Level 9)",
                "pack": "pf2e.classfeatures"
            },
            "enge3": {
                "id": "zu9PcxvfoZlqQVk5",
                "img": "systems/pf2e/icons/features/classes/master-spellcaster.webp",
                "level": 17,
                "name": "Master Spellcaster (Level 17)",
                "pack": "pf2e.classfeatures"
            },
            "jbg78": {
                "id": "FTeIs1Z1Qeli4BIF",
                "img": "systems/pf2e/icons/features/classes/choice-feature.webp",
                "level": 1,
                "name": "Hybrid Study",
                "pack": "pf2e.classfeatures"
            },
            "jg9zn": {
                "id": "FCEp9jjxxgRJDJV3",
                "img": "systems/pf2e/icons/features/classes/medium-armor-expertise.webp",
                "level": 11,
                "name": "Medium Armor Expertise (Level 11)",
                "pack": "pf2e.classfeatures"
            },
            "k9o6o": {
                "id": "WiM7X4xmpMx4s6LD",
                "img": "systems/pf2e/icons/features/classes/weapon-specialization.webp",
                "level": 7,
                "name": "Weapon Specialization (Level 7)",
                "pack": "pf2e.classfeatures"
            },
            "lsnm7": {
                "id": "09iL38CZZEa0q0Mt",
                "img": "systems/pf2e/icons/default-icons/feat.svg",
                "level": 1,
                "name": "Arcane Cascade",
                "pack": "pf2e.classfeatures"
            },
            "nkff5": {
                "id": "Z7HX6TeFsaup7Dx9",
                "img": "systems/pf2e/icons/features/classes/greater-weapon-specialization.webp",
                "level": 15,
                "name": "Greater Weapon Specialization (Level 15)",
                "pack": "pf2e.classfeatures"
            },
            "p6ina": {
                "id": "cGMSYAErbUG5E8X2",
                "img": "systems/pf2e/icons/default-icons/feat.svg",
                "level": 17,
                "name": "Medium Armor Mastery (Level 17)",
                "pack": "pf2e.classfeatures"
            },
            "se5i8": {
                "id": "i6563IU7x4L9oRgC",
                "img": "systems/pf2e/icons/features/classes/weapon-mastery.webp",
                "level": 13,
                "name": "Weapon Mastery (Level 13)",
                "pack": "pf2e.classfeatures"
            },
            "tgkm3": {
                "id": "VmPIJomEdmgGrCMS",
                "img": "systems/pf2e/icons/default-icons/feat.svg",
                "level": 19,
                "name": "Double Spellstrike",
                "pack": "pf2e.classfeatures"
            },
            "tkzi2": {
                "id": "TAIOtk5VvPZvv4nu",
                "img": "systems/pf2e/icons/features/classes/alertness.webp",
                "level": 9,
                "name": "Alertness (Level 9)",
                "pack": "pf2e.classfeatures"
            },
            "uoxoe": {
                "id": "D2g6sZQAWaTccviQ",
                "img": "systems/pf2e/icons/features/classes/resolve.webp",
                "level": 9,
                "name": "Resolve (Level 9)",
                "pack": "pf2e.classfeatures"
            },
            "vcf45": {
                "id": "KVj5ofUwu3VJSrVw",
                "img": "systems/pf2e/icons/default-icons/feat.svg",
                "level": 1,
                "name": "Spellstrike",
                "pack": "pf2e.classfeatures"
            },
            "x3em9": {
                "id": "pzTRQxuoNOeWAalC",
                "img": "systems/pf2e/icons/features/classes/juggerenaut.webp",
                "level": 15,
                "name": "Juggernaut (Level 15)",
                "pack": "pf2e.classfeatures"
            },
            "zn731": {
                "id": "6HCI2iHyBZAr7a4P",
                "img": "systems/pf2e/icons/default-icons/feat.svg",
                "level": 7,
                "name": "Studious Spells",
                "pack": "pf2e.classfeatures"
            }
        },
        "keyAbility": {
            "value": [
                "dex",
                "str"
            ]
        },
        "perception": 1,
        "rules": [
            {
                "key": "ActiveEffectLike",
                "mode": "upgrade",
                "path": "data.proficiencies.traditions.arcane.rank",
                "value": {
                    "brackets": [
                        {
                            "end": 8,
                            "start": 1,
                            "value": 1
                        },
                        {
                            "end": 16,
                            "start": 9,
                            "value": 2
                        },
                        {
                            "start": 17,
                            "value": 3
                        }
                    ],
                    "field": "actor|data.details.level.value"
                }
            }
        ],
        "savingThrows": {
            "fortitude": 2,
            "reflex": 1,
            "will": 2
        },
        "skillFeatLevels": {
            "value": [
                2,
                4,
                6,
                8,
                10,
                12,
                14,
                16,
                18,
                20
            ]
        },
        "skillIncreaseLevels": {
            "value": [
                3,
                5,
                7,
                9,
                11,
                13,
                15,
                17,
                19
            ]
        },
        "source": {
            "value": "Pathfinder Secrets of Magic"
        },
        "trainedSkills": {
            "additional": 2,
            "custom": "",
            "value": [
                "arc"
            ]
        },
        "traits": {
            "custom": "",
            "rarity": {
                "value": "common"
            },
            "value": []
        }
    },
    "effects": [],
    "flags": {},
    "img": "systems/pf2e/icons/classes/magus.webp",
    "name": "Magus",
    "type": "class"
}
