{
    "_id": "pQ9e5njvIOe5QzFa",
    "data": {
        "description": {
            "value": "<p>You and all allies within 30 feet gain a +10-foot status bonus to all Speeds for 1 minute.</p>"
        },
        "duration": {
            "expiry": "turn-start",
            "sustained": false,
            "unit": "minutes",
            "value": 1
        },
        "level": {
            "value": 4
        },
        "rules": [
            {
                "key": "FlatModifier",
                "label": "Fleet Tempo",
                "selector": "speed",
                "type": "status",
                "value": 10
            }
        ],
        "source": {
            "value": "Pathfinder #170: Spoken on the Song Wind"
        },
        "start": {
            "initiative": null,
            "value": 0
        },
        "target": null,
        "tokenIcon": {
            "show": true
        },
        "traits": {
            "custom": "",
            "rarity": {
                "value": "common"
            },
            "value": []
        }
    },
    "effects": [],
    "flags": {},
    "img": "systems/pf2e/icons/default-icons/effect.svg",
    "name": "Effect: Fleet Tempo",
    "type": "effect"
}
