{
    "_id": "RulRBISL4S1xVyVg",
    "content": "<p>Play when you Activate a magic item that Casts a Spell.</p>\n<hr />\n<p>Heighten the spell by 1 level. This can't heighten the item's spell above half your level, rounded up. If the item wasn't consumed on use, you can't use the item again for 24 hours.</p>",
    "flags": {},
    "name": "Drain Power",
    "permission": {
        "default": 0
    }
}
